4-Hete-platform/trace.vcd
$date
    Sun Sep 29 11:43:56 2019
$end

$version
    2.1
$end

$timescale
      1 ps
$end

$scope module SystemC_AMS $end

$var real 1 !  m_flag $end
$var integer 32 "  m_flag_tlm $end
$var real 1 #  m_threshold $end
$var integer 32 $  m_threshold_tlm $end
$var real 1 %  m_apertura $end
$var real 1 &  m_livello_acqua $end

$upscope $end

$enddefinitions $end


#0
r0.000000000000000 !
b0 "
r0.000000000000000 #
b0 $
r0.000000000000000 %
r0.000000000000000 &

#1000000000
r0.000000000000000 !
r0.000000000000000 #
r0.000000000000000 %

#2000000000
r0.000000000000000 !
r0.000000000000000 #
r0.000000000000000 %

#3000000000
r0.000000000000000 !
r0.000000000000000 #
r0.000000000000000 %

#4000000000
r0.000000000000000 !
r0.000000000000000 #
r0.000000000000000 %

#5000000000
r0.000000000000000 !
r0.000000000000000 #
r0.000000000000000 %

#5001330000
b11000011010100000 "
b10010110011001000 $

#6000000000
r100000.0000000000 !
r77000.00000000000 #
r0.000000000000000 %

#7000000000
r100000.0000000000 !
r77000.00000000000 #
r0.000000000000000 %

#8000000000
r100000.0000000000 !
r77000.00000000000 #
r0.000000000000000 %

#9000000000
r100000.0000000000 !
r77000.00000000000 #
r0.2500000000000000 %
r7.499887501687473e-05 &

#10000000000
r100000.0000000000 !
r77000.00000000000 #
r0.2500000000000000 %
r0.0002249943751181227 &

#10002130000
b10100101011011100 $

#11000000000
r100000.0000000000 !
r84700.00000000000 #
r0.5000000000000000 %
r0.0004499842504387394 &

#12000000000
r100000.0000000000 !
r84700.00000000000 #
r0.5000000000000000 %
r0.0007499662511812151 &

#13000000000
r100000.0000000000 !
r84700.00000000000 #
r0.7500000000000000 %
r0.001124938127615533 &

#14000000000
r100000.0000000000 !
r84700.00000000000 #
r0.7500000000000000 %
r0.001574897630079168 &

#15000000000
r100000.0000000000 !
r84700.00000000000 #
r0.7500000000000000 %
r0.002024843633960207 &

#15001600000
b10110101111110010 $

#16000000000
r100000.0000000000 !
r93170.00000000000 #
r0.7500000000000000 %
r0.002474776139663603 &

#17000000000
r100000.0000000000 !
r93170.00000000000 #
r0.7500000000000000 %
r0.002924695147594295 &

#18000000000
r100000.0000000000 !
r93170.00000000000 #
r0.7500000000000000 %
r0.003374600658157208 &

#19000000000
r100000.0000000000 !
r93170.00000000000 #
r0.7500000000000000 %
r0.003824492671757259 &

#20000000000
r100000.0000000000 !
r93170.00000000000 #
r0.7500000000000000 %
r0.004274371188799351 &

#20002400000
b11001000001010111 $

#21000000000
r100000.0000000000 !
r102487.0000000000 #
r0.7500000000000000 %
r0.004724236209688374 &

