4-Hete-platform/trace.vcd
$date
    Thu Sep 26 18:44:13 2019
$end

$version
    2.1
$end

$timescale
      1 ps
$end

$scope module SystemC_AMS $end

$var real 1 !  m_flag $end
$var integer 32 "  m_flag_tlm $end
$var real 1 #  m_threshold $end
$var integer 32 $  m_threshold_tlm $end
$var real 1 %  m_apertura $end
$var real 1 &  m_livello_acqua $end

$upscope $end

$enddefinitions $end


#0
r0.000000000000000 !
b0 "
r0.000000000000000 #
b0 $
r0.000000000000000 %
r0.000000000000000 &

#1000000000
r0.000000000000000 !
r0.000000000000000 #
r0.000000000000000 %

#2000000000
r0.000000000000000 !
r0.000000000000000 #
r0.000000000000000 %

#3000000000
r0.000000000000000 !
r0.000000000000000 #
r0.000000000000000 %

#4000000000
r0.000000000000000 !
r0.000000000000000 #
r0.000000000000000 %

#5000000000
r0.000000000000000 !
r0.000000000000000 #
r0.000000000000000 %

#5001330000
b11010110110110000 "
b10010110011001000 $

#5001340000
b0 "
b0 $

#5002650000
b11010110110110000 "
b10010110011001000 $

#5002660000
b0 "
b0 $

#5003970000
b11010110110110000 "
b10010110011001000 $

#5003980000
b0 "
b0 $

#5005290000
b11010110110110000 "
b10010110011001000 $

#5005300000
b0 "
b0 $

#5006610000
b11010110110110000 "
b10010110011001000 $

#5006620000
b0 "
b0 $

#5007930000
b11010110110110000 "
b10010110011001000 $

#5007940000
b0 "
b0 $

#5009250000
b11010110110110000 "
b10010110011001000 $

#5009260000
b0 "
b0 $

#5010570000
b11010110110110000 "
b10010110011001000 $

#5010580000
b0 "
b0 $

#5011890000
b11010110110110000 "
b10010110011001000 $

#5011900000
b0 "
b0 $

#5013210000
b11010110110110000 "
b10010110011001000 $

#5013220000
b0 "
b0 $

#5014530000
b11010110110110000 "
b10010110011001000 $

#5014540000
b0 "
b0 $

#5015850000
b11010110110110000 "
b10010110011001000 $

#5015860000
b0 "
b0 $

#5017170000
b11010110110110000 "
b10010110011001000 $

#5017180000
b0 "
b0 $

#5018490000
b11010110110110000 "
b10010110011001000 $

#5018500000
b0 "
b0 $

#5019810000
b11010110110110000 "
b10010110011001000 $

#5019820000
b0 "
b0 $

#5021130000
b11010110110110000 "
b10010110011001000 $

#5021140000
b0 "
b0 $

#5022450000
b11010110110110000 "
b10010110011001000 $

#5022460000
b0 "
b0 $

#5023770000
b11010110110110000 "
b10010110011001000 $

#5023780000
b0 "
b0 $

#5025090000
b11010110110110000 "
b10010110011001000 $

#5025100000
b0 "
b0 $

#5026410000
b11010110110110000 "
b10010110011001000 $

#5026420000
b0 "
b0 $

#5027730000
b11010110110110000 "
b10010110011001000 $

#5027740000
b0 "
b0 $

#5029050000
b11010110110110000 "
b10010110011001000 $

#5029060000
b0 "
b0 $

#5030370000
b11010110110110000 "
b10010110011001000 $

#5030380000
b0 "
b0 $

#5031690000
b11010110110110000 "
b10010110011001000 $

#5031700000
b0 "
b0 $

#5033010000
b11010110110110000 "
b10010110011001000 $

#5033020000
b0 "
b0 $

#5034330000
b11010110110110000 "
b10010110011001000 $

#5034340000
b0 "
b0 $

#5035650000
b11010110110110000 "
b10010110011001000 $

#5035660000
b0 "
b0 $

#5036970000
b11010110110110000 "
b10010110011001000 $

#5036980000
b0 "
b0 $

#5038290000
b11010110110110000 "
b10010110011001000 $

#5038300000
b0 "
b0 $

#5039610000
b11010110110110000 "
b10010110011001000 $

#5039620000
b0 "
b0 $

#5040930000
b11010110110110000 "
b10010110011001000 $

#5040940000
b0 "
b0 $

#5042250000
b11010110110110000 "
b10010110011001000 $

#5042260000
b0 "
b0 $

#5043570000
b11010110110110000 "
b10010110011001000 $

#5043580000
b0 "
b0 $

#5044890000
b11010110110110000 "
b10010110011001000 $

#5044900000
b0 "
b0 $

#5046210000
b11010110110110000 "
b10010110011001000 $

#5046220000
b0 "
b0 $

#5047530000
b11010110110110000 "
b10010110011001000 $

#5047540000
b0 "
b0 $

#5048850000
b11010110110110000 "
b10010110011001000 $

#5048860000
b0 "
b0 $

#5050170000
b11010110110110000 "
b10010110011001000 $

#5050180000
b0 "
b0 $

#5051490000
b11010110110110000 "
b10010110011001000 $

#5051500000
b0 "
b0 $

#5052810000
b11010110110110000 "
b10010110011001000 $

#5052820000
b0 "
b0 $

#5054130000
b11010110110110000 "
b10010110011001000 $

#5054140000
b0 "
b0 $

#5055450000
b11010110110110000 "
b10010110011001000 $

#5055460000
b0 "
b0 $

#5056770000
b11010110110110000 "
b10010110011001000 $

#5056780000
b0 "
b0 $

#5058090000
b11010110110110000 "
b10010110011001000 $

#5058100000
b0 "
b0 $

#5059410000
b11010110110110000 "
b10010110011001000 $

#5059420000
b0 "
b0 $

#5060730000
b11010110110110000 "
b10010110011001000 $

#5060740000
b0 "
b0 $

#5062050000
b11010110110110000 "
b10010110011001000 $

#5062060000
b0 "
b0 $

#5063370000
b11010110110110000 "
b10010110011001000 $

#5063380000
b0 "
b0 $

#5064690000
b11010110110110000 "
b10010110011001000 $

#5064700000
b0 "
b0 $

#5066010000
b11010110110110000 "
b10010110011001000 $

#5066020000
b0 "
b0 $

#5067330000
b11010110110110000 "
b10010110011001000 $

#5067340000
b0 "
b0 $

#5068650000
b11010110110110000 "
b10010110011001000 $

#5068660000
b0 "
b0 $

#5069970000
b11010110110110000 "
b10010110011001000 $

#5069980000
b0 "
b0 $

#5071290000
b11010110110110000 "
b10010110011001000 $

#5071300000
b0 "
b0 $

#5072610000
b11010110110110000 "
b10010110011001000 $

#5072620000
b0 "
b0 $

#5073930000
b11010110110110000 "
b10010110011001000 $

#5073940000
b0 "
b0 $

#5075250000
b11010110110110000 "
b10010110011001000 $

#5075260000
b0 "
b0 $

#5076570000
b11010110110110000 "
b10010110011001000 $

#5076580000
b0 "
b0 $

#5077890000
b11010110110110000 "
b10010110011001000 $

#5077900000
b0 "
b0 $

#5079210000
b11010110110110000 "
b10010110011001000 $

#5079220000
b0 "
b0 $

#5080530000
b11010110110110000 "
b10010110011001000 $

#5080540000
b0 "
b0 $

#5081850000
b11010110110110000 "
b10010110011001000 $

#5081860000
b0 "
b0 $

#5083170000
b11010110110110000 "
b10010110011001000 $

#5083180000
b0 "
b0 $

#5084490000
b11010110110110000 "
b10010110011001000 $

#5084500000
b0 "
b0 $

#5085810000
b11010110110110000 "
b10010110011001000 $

#5085820000
b0 "
b0 $

#5087130000
b11010110110110000 "
b10010110011001000 $

#5087140000
b0 "
b0 $

#5088450000
b11010110110110000 "
b10010110011001000 $

#5088460000
b0 "
b0 $

#5089770000
b11010110110110000 "
b10010110011001000 $

#5089780000
b0 "
b0 $

#5091090000
b11010110110110000 "
b10010110011001000 $

#5091100000
b0 "
b0 $

#5092410000
b11010110110110000 "
b10010110011001000 $

#5092420000
b0 "
b0 $

#5093730000
b11010110110110000 "
b10010110011001000 $

#5093740000
b0 "
b0 $

#5095050000
b11010110110110000 "
b10010110011001000 $

#5095060000
b0 "
b0 $

#5096370000
b11010110110110000 "
b10010110011001000 $

#5096380000
b0 "
b0 $

#5097690000
b11010110110110000 "
b10010110011001000 $

#5097700000
b0 "
b0 $

#5099010000
b11010110110110000 "
b10010110011001000 $

#5099020000
b0 "
b0 $

#5100330000
b11010110110110000 "
b10010110011001000 $

#5100340000
b0 "
b0 $

#5101650000
b11010110110110000 "
b10010110011001000 $

#5101660000
b0 "
b0 $

#5102970000
b11010110110110000 "
b10010110011001000 $

#5102980000
b0 "
b0 $

#5104290000
b11010110110110000 "
b10010110011001000 $

#5104300000
b0 "
b0 $

#5105610000
b11010110110110000 "
b10010110011001000 $

#5105620000
b0 "
b0 $

#5106930000
b11010110110110000 "
b10010110011001000 $

#5106940000
b0 "
b0 $

#5108250000
b11010110110110000 "
b10010110011001000 $

#5108260000
b0 "
b0 $

#5109570000
b11010110110110000 "
b10010110011001000 $

#5109580000
b0 "
b0 $

#5110890000
b11010110110110000 "
b10010110011001000 $

#5110900000
b0 "
b0 $

#5112210000
b11010110110110000 "
b10010110011001000 $

#5112220000
b0 "
b0 $

#5113530000
b11010110110110000 "
b10010110011001000 $

#5113540000
b0 "
b0 $

#5114850000
b11010110110110000 "
b10010110011001000 $

#5114860000
b0 "
b0 $

#5116170000
b11010110110110000 "
b10010110011001000 $

#5116180000
b0 "
b0 $

#5117490000
b11010110110110000 "
b10010110011001000 $

#5117500000
b0 "
b0 $

#5118810000
b11010110110110000 "
b10010110011001000 $

#5118820000
b0 "
b0 $

#5120130000
b11010110110110000 "
b10010110011001000 $

#5120140000
b0 "
b0 $

#5121450000
b11010110110110000 "
b10010110011001000 $

#5121460000
b0 "
b0 $

#5122770000
b11010110110110000 "
b10010110011001000 $

#5122780000
b0 "
b0 $

#5124090000
b11010110110110000 "
b10010110011001000 $

#5124100000
b0 "
b0 $

#5125410000
b11010110110110000 "
b10010110011001000 $

#5125420000
b0 "
b0 $

#5126730000
b11010110110110000 "
b10010110011001000 $

#5126740000
b0 "
b0 $

#5128050000
b11010110110110000 "
b10010110011001000 $

#5128060000
b0 "
b0 $

#5129370000
b11010110110110000 "
b10010110011001000 $

#5129380000
b0 "
b0 $

#5130690000
b11010110110110000 "
b10010110011001000 $

#5130700000
b0 "
b0 $

#5132010000
b11010110110110000 "
b10010110011001000 $

#5132020000
b0 "
b0 $

#5133330000
b11010110110110000 "
b10010110011001000 $

#5133340000
b0 "
b0 $

#5134650000
b11010110110110000 "
b10010110011001000 $

#5134660000
b0 "
b0 $

#5135970000
b11010110110110000 "
b10010110011001000 $

#5135980000
b0 "
b0 $

#5137290000
b11010110110110000 "
b10010110011001000 $

#5137300000
b0 "
b0 $

#5138610000
b11010110110110000 "
b10010110011001000 $

#5138620000
b0 "
b0 $

#5139930000
b11010110110110000 "
b10010110011001000 $

#5139940000
b0 "
b0 $

#5141250000
b11010110110110000 "
b10010110011001000 $

#5141260000
b0 "
b0 $

#5142570000
b11010110110110000 "
b10010110011001000 $

#5142580000
b0 "
b0 $

#5143890000
b11010110110110000 "
b10010110011001000 $

#5143900000
b0 "
b0 $

#5145210000
b11010110110110000 "
b10010110011001000 $

#5145220000
b0 "
b0 $

#5146530000
b11010110110110000 "
b10010110011001000 $

#5146540000
b0 "
b0 $

#5147850000
b11010110110110000 "
b10010110011001000 $

#5147860000
b0 "
b0 $

#5149170000
b11010110110110000 "
b10010110011001000 $

#5149180000
b0 "
b0 $

#5150490000
b11010110110110000 "
b10010110011001000 $

#5150500000
b0 "
b0 $

#5151810000
b11010110110110000 "
b10010110011001000 $

#5151820000
b0 "
b0 $

#5153130000
b11010110110110000 "
b10010110011001000 $

#5153140000
b0 "
b0 $

#5154450000
b11010110110110000 "
b10010110011001000 $

#5154460000
b0 "
b0 $

#5155770000
b11010110110110000 "
b10010110011001000 $

#5155780000
b0 "
b0 $

#5157090000
b11010110110110000 "
b10010110011001000 $

#5157100000
b0 "
b0 $

#5158410000
b11010110110110000 "
b10010110011001000 $

#5158420000
b0 "
b0 $

#5159730000
b11010110110110000 "
b10010110011001000 $

#5159740000
b0 "
b0 $

#5161050000
b11010110110110000 "
b10010110011001000 $

#5161060000
b0 "
b0 $

#5162370000
b11010110110110000 "
b10010110011001000 $

#5162380000
b0 "
b0 $

#5163690000
b11010110110110000 "
b10010110011001000 $

#5163700000
b0 "
b0 $

#5165010000
b11010110110110000 "
b10010110011001000 $

#5165020000
b0 "
b0 $

#5166330000
b11010110110110000 "
b10010110011001000 $

#5166340000
b0 "
b0 $

#5167650000
b11010110110110000 "
b10010110011001000 $

#5167660000
b0 "
b0 $

#5168970000
b11010110110110000 "
b10010110011001000 $

#5168980000
b0 "
b0 $

#5170290000
b11010110110110000 "
b10010110011001000 $

#5170300000
b0 "
b0 $

#5171610000
b11010110110110000 "
b10010110011001000 $

#5171620000
b0 "
b0 $

#5172930000
b11010110110110000 "
b10010110011001000 $

#5172940000
b0 "
b0 $

#5174250000
b11010110110110000 "
b10010110011001000 $

#5174260000
b0 "
b0 $

#5175570000
b11010110110110000 "
b10010110011001000 $

#5175580000
b0 "
b0 $

#5176890000
b11010110110110000 "
b10010110011001000 $

#5176900000
b0 "
b0 $

#5178210000
b11010110110110000 "
b10010110011001000 $

#5178220000
b0 "
b0 $

#5179530000
b11010110110110000 "
b10010110011001000 $

#5179540000
b0 "
b0 $

#5180850000
b11010110110110000 "
b10010110011001000 $

#5180860000
b0 "
b0 $

#5182170000
b11010110110110000 "
b10010110011001000 $

#5182180000
b0 "
b0 $

#5183490000
b11010110110110000 "
b10010110011001000 $

#5183500000
b0 "
b0 $

#5184810000
b11010110110110000 "
b10010110011001000 $

#5184820000
b0 "
b0 $

#5186130000
b11010110110110000 "
b10010110011001000 $

#5186140000
b0 "
b0 $

#5187450000
b11010110110110000 "
b10010110011001000 $

#5187460000
b0 "
b0 $

#5188770000
b11010110110110000 "
b10010110011001000 $

#5188780000
b0 "
b0 $

#5190090000
b11010110110110000 "
b10010110011001000 $

#5190100000
b0 "
b0 $

#5191410000
b11010110110110000 "
b10010110011001000 $

#5191420000
b0 "
b0 $

#5192730000
b11010110110110000 "
b10010110011001000 $

#5192740000
b0 "
b0 $

#5194050000
b11010110110110000 "
b10010110011001000 $

#5194060000
b0 "
b0 $

#5195370000
b11010110110110000 "
b10010110011001000 $

#5195380000
b0 "
b0 $

#5196690000
b11010110110110000 "
b10010110011001000 $

#5196700000
b0 "
b0 $

#5198010000
b11010110110110000 "
b10010110011001000 $

#5198020000
b0 "
b0 $

#5199330000
b11010110110110000 "
b10010110011001000 $

#5199340000
b0 "
b0 $

#5200650000
b11010110110110000 "
b10010110011001000 $

#5200660000
b0 "
b0 $

#5201970000
b11010110110110000 "
b10010110011001000 $

#5201980000
b0 "
b0 $

#5203290000
b11010110110110000 "
b10010110011001000 $

#5203300000
b0 "
b0 $

#5204610000
b11010110110110000 "
b10010110011001000 $

#5204620000
b0 "
b0 $

#5205930000
b11010110110110000 "
b10010110011001000 $

#5205940000
b0 "
b0 $

#5207250000
b11010110110110000 "
b10010110011001000 $

#5207260000
b0 "
b0 $

#5208570000
b11010110110110000 "
b10010110011001000 $

#5208580000
b0 "
b0 $

#5209890000
b11010110110110000 "
b10010110011001000 $

#5209900000
b0 "
b0 $

#5211210000
b11010110110110000 "
b10010110011001000 $

#5211220000
b0 "
b0 $

#5212530000
b11010110110110000 "
b10010110011001000 $

#5212540000
b0 "
b0 $

#5213850000
b11010110110110000 "
b10010110011001000 $

#5213860000
b0 "
b0 $

#5215170000
b11010110110110000 "
b10010110011001000 $

#5215180000
b0 "
b0 $

#5216490000
b11010110110110000 "
b10010110011001000 $

#5216500000
b0 "
b0 $

#5217810000
b11010110110110000 "
b10010110011001000 $

#5217820000
b0 "
b0 $

#5219130000
b11010110110110000 "
b10010110011001000 $

#5219140000
b0 "
b0 $

#5220450000
b11010110110110000 "
b10010110011001000 $

#5220460000
b0 "
b0 $

#5221770000
b11010110110110000 "
b10010110011001000 $

#5221780000
b0 "
b0 $

#5223090000
b11010110110110000 "
b10010110011001000 $

#5223100000
b0 "
b0 $

#5224410000
b11010110110110000 "
b10010110011001000 $

#5224420000
b0 "
b0 $

#5225730000
b11010110110110000 "
b10010110011001000 $

#5225740000
b0 "
b0 $

#5227050000
b11010110110110000 "
b10010110011001000 $

#5227060000
b0 "
b0 $

#5228370000
b11010110110110000 "
b10010110011001000 $

#5228380000
b0 "
b0 $

#5229690000
b11010110110110000 "
b10010110011001000 $

#5229700000
b0 "
b0 $

#5231010000
b11010110110110000 "
b10010110011001000 $

#5231020000
b0 "
b0 $

#5232330000
b11010110110110000 "
b10010110011001000 $

#5232340000
b0 "
b0 $

#5233650000
b11010110110110000 "
b10010110011001000 $

#5233660000
b0 "
b0 $

#5234970000
b11010110110110000 "
b10010110011001000 $

#5234980000
b0 "
b0 $

#5236290000
b11010110110110000 "
b10010110011001000 $

#5236300000
b0 "
b0 $

#5237610000
b11010110110110000 "
b10010110011001000 $

#5237620000
b0 "
b0 $

#5238930000
b11010110110110000 "
b10010110011001000 $

#5238940000
b0 "
b0 $

#5240250000
b11010110110110000 "
b10010110011001000 $

#5240260000
b0 "
b0 $

#5241570000
b11010110110110000 "
b10010110011001000 $

#5241580000
b0 "
b0 $

#5242890000
b11010110110110000 "
b10010110011001000 $

#5242900000
b0 "
b0 $

#5244210000
b11010110110110000 "
b10010110011001000 $

#5244220000
b0 "
b0 $

#5245530000
b11010110110110000 "
b10010110011001000 $

#5245540000
b0 "
b0 $

#5246850000
b11010110110110000 "
b10010110011001000 $

#5246860000
b0 "
b0 $

#5248170000
b11010110110110000 "
b10010110011001000 $

#5248180000
b0 "
b0 $

#5249490000
b11010110110110000 "
b10010110011001000 $

#5249500000
b0 "
b0 $

#5250810000
b11010110110110000 "
b10010110011001000 $

#5250820000
b0 "
b0 $

#5252130000
b11010110110110000 "
b10010110011001000 $

#5252140000
b0 "
b0 $

#5253450000
b11010110110110000 "
b10010110011001000 $

#5253460000
b0 "
b0 $

#5254770000
b11010110110110000 "
b10010110011001000 $

#5254780000
b0 "
b0 $

#5256090000
b11010110110110000 "
b10010110011001000 $

#5256100000
b0 "
b0 $

#5257410000
b11010110110110000 "
b10010110011001000 $

#5257420000
b0 "
b0 $

#5258730000
b11010110110110000 "
b10010110011001000 $

#5258740000
b0 "
b0 $

#5260050000
b11010110110110000 "
b10010110011001000 $

#5260060000
b0 "
b0 $

#5261370000
b11010110110110000 "
b10010110011001000 $

#5261380000
b0 "
b0 $

#5262690000
b11010110110110000 "
b10010110011001000 $

#5262700000
b0 "
b0 $

#5264010000
b11010110110110000 "
b10010110011001000 $

#5264020000
b0 "
b0 $

#5265330000
b11010110110110000 "
b10010110011001000 $

#5265340000
b0 "
b0 $

#5266650000
b11010110110110000 "
b10010110011001000 $

#5266660000
b0 "
b0 $

#5267970000
b11010110110110000 "
b10010110011001000 $

#5267980000
b0 "
b0 $

#5269290000
b11010110110110000 "
b10010110011001000 $

#5269300000
b0 "
b0 $

#5270610000
b11010110110110000 "
b10010110011001000 $

#5270620000
b0 "
b0 $

#5271930000
b11010110110110000 "
b10010110011001000 $

#5271940000
b0 "
b0 $

#5273250000
b11010110110110000 "
b10010110011001000 $

#5273260000
b0 "
b0 $

#5274570000
b11010110110110000 "
b10010110011001000 $

#5274580000
b0 "
b0 $

#5275890000
b11010110110110000 "
b10010110011001000 $

#5275900000
b0 "
b0 $

#5277210000
b11010110110110000 "
b10010110011001000 $

#5277220000
b0 "
b0 $

#5278530000
b11010110110110000 "
b10010110011001000 $

#5278540000
b0 "
b0 $

#5279850000
b11010110110110000 "
b10010110011001000 $

#5279860000
b0 "
b0 $

#5281170000
b11010110110110000 "
b10010110011001000 $

#5281180000
b0 "
b0 $

#5282490000
b11010110110110000 "
b10010110011001000 $

#5282500000
b0 "
b0 $

#5283810000
b11010110110110000 "
b10010110011001000 $

#5283820000
b0 "
b0 $

#5285130000
b11010110110110000 "
b10010110011001000 $

#5285140000
b0 "
b0 $

#5286450000
b11010110110110000 "
b10010110011001000 $

#5286460000
b0 "
b0 $

#5287770000
b11010110110110000 "
b10010110011001000 $

#5287780000
b0 "
b0 $

#5289090000
b11010110110110000 "
b10010110011001000 $

#5289100000
b0 "
b0 $

#5290410000
b11010110110110000 "
b10010110011001000 $

#5290420000
b0 "
b0 $

#5291730000
b11010110110110000 "
b10010110011001000 $

#5291740000
b0 "
b0 $

#5293050000
b11010110110110000 "
b10010110011001000 $

#5293060000
b0 "
b0 $

#5294370000
b11010110110110000 "
b10010110011001000 $

#5294380000
b0 "
b0 $

#5295690000
b11010110110110000 "
b10010110011001000 $

#5295700000
b0 "
b0 $

#5297010000
b11010110110110000 "
b10010110011001000 $

#5297020000
b0 "
b0 $

#5298330000
b11010110110110000 "
b10010110011001000 $

#5298340000
b0 "
b0 $

#5299650000
b11010110110110000 "
b10010110011001000 $

#5299660000
b0 "
b0 $

#5300970000
b11010110110110000 "
b10010110011001000 $

#5300980000
b0 "
b0 $

#5302290000
b11010110110110000 "
b10010110011001000 $

#5302300000
b0 "
b0 $

#5303610000
b11010110110110000 "
b10010110011001000 $

#5303620000
b0 "
b0 $

#5304930000
b11010110110110000 "
b10010110011001000 $

#5304940000
b0 "
b0 $

#5306250000
b11010110110110000 "
b10010110011001000 $

#5306260000
b0 "
b0 $

#5307570000
b11010110110110000 "
b10010110011001000 $

#5307580000
b0 "
b0 $

#5308890000
b11010110110110000 "
b10010110011001000 $

#5308900000
b0 "
b0 $

#5310210000
b11010110110110000 "
b10010110011001000 $

#5310220000
b0 "
b0 $

#5311530000
b11010110110110000 "
b10010110011001000 $

#5311540000
b0 "
b0 $

#5312850000
b11010110110110000 "
b10010110011001000 $

#5312860000
b0 "
b0 $

#5314170000
b11010110110110000 "
b10010110011001000 $

#5314180000
b0 "
b0 $

#5315490000
b11010110110110000 "
b10010110011001000 $

#5315500000
b0 "
b0 $

#5316810000
b11010110110110000 "
b10010110011001000 $

#5316820000
b0 "
b0 $

#5318130000
b11010110110110000 "
b10010110011001000 $

#5318140000
b0 "
b0 $

#5319450000
b11010110110110000 "
b10010110011001000 $

#5319460000
b0 "
b0 $

#5320770000
b11010110110110000 "
b10010110011001000 $

#5320780000
b0 "
b0 $

#5322090000
b11010110110110000 "
b10010110011001000 $

#5322100000
b0 "
b0 $

#5323410000
b11010110110110000 "
b10010110011001000 $

#5323420000
b0 "
b0 $

#5324730000
b11010110110110000 "
b10010110011001000 $

#5324740000
b0 "
b0 $

#5326050000
b11010110110110000 "
b10010110011001000 $

#5326060000
b0 "
b0 $

#5327370000
b11010110110110000 "
b10010110011001000 $

#5327380000
b0 "
b0 $

#5328690000
b11010110110110000 "
b10010110011001000 $

#5328700000
b0 "
b0 $

#5330010000
b11010110110110000 "
b10010110011001000 $

#5330020000
b0 "
b0 $

#5331330000
b11010110110110000 "
b10010110011001000 $

#5331340000
b0 "
b0 $

#5332650000
b11010110110110000 "
b10010110011001000 $

#5332660000
b0 "
b0 $

#5333970000
b11010110110110000 "
b10010110011001000 $

#5333980000
b0 "
b0 $

#5335290000
b11010110110110000 "
b10010110011001000 $

#5335300000
b0 "
b0 $

#5336610000
b11010110110110000 "
b10010110011001000 $

#5336620000
b0 "
b0 $

#5337930000
b11010110110110000 "
b10010110011001000 $

#5337940000
b0 "
b0 $

#5339250000
b11010110110110000 "
b10010110011001000 $

#5339260000
b0 "
b0 $

#5340570000
b11010110110110000 "
b10010110011001000 $

#5340580000
b0 "
b0 $

#5341890000
b11010110110110000 "
b10010110011001000 $

#5341900000
b0 "
b0 $

#5343210000
b11010110110110000 "
b10010110011001000 $

#5343220000
b0 "
b0 $

#5344530000
b11010110110110000 "
b10010110011001000 $

#5344540000
b0 "
b0 $

#5345850000
b11010110110110000 "
b10010110011001000 $

#5345860000
b0 "
b0 $

#5347170000
b11010110110110000 "
b10010110011001000 $

#5347180000
b0 "
b0 $

#5348490000
b11010110110110000 "
b10010110011001000 $

#5348500000
b0 "
b0 $

#5349810000
b11010110110110000 "
b10010110011001000 $

#5349820000
b0 "
b0 $

#5351130000
b11010110110110000 "
b10010110011001000 $

#5351140000
b0 "
b0 $

#5352450000
b11010110110110000 "
b10010110011001000 $

#5352460000
b0 "
b0 $

#5353770000
b11010110110110000 "
b10010110011001000 $

#5353780000
b0 "
b0 $

#5355090000
b11010110110110000 "
b10010110011001000 $

#5355100000
b0 "
b0 $

#5356410000
b11010110110110000 "
b10010110011001000 $

#5356420000
b0 "
b0 $

#5357730000
b11010110110110000 "
b10010110011001000 $

#5357740000
b0 "
b0 $

#5359050000
b11010110110110000 "
b10010110011001000 $

#5359060000
b0 "
b0 $

#5360370000
b11010110110110000 "
b10010110011001000 $

#5360380000
b0 "
b0 $

#5361690000
b11010110110110000 "
b10010110011001000 $

#5361700000
b0 "
b0 $

#5363010000
b11010110110110000 "
b10010110011001000 $

#5363020000
b0 "
b0 $

#5364330000
b11010110110110000 "
b10010110011001000 $

#5364340000
b0 "
b0 $

#5365650000
b11010110110110000 "
b10010110011001000 $

#5365660000
b0 "
b0 $

#5366970000
b11010110110110000 "
b10010110011001000 $

#5366980000
b0 "
b0 $

#5368290000
b11010110110110000 "
b10010110011001000 $

#5368300000
b0 "
b0 $

#5369610000
b11010110110110000 "
b10010110011001000 $

#5369620000
b0 "
b0 $

#5370930000
b11010110110110000 "
b10010110011001000 $

#5370940000
b0 "
b0 $

#5372250000
b11010110110110000 "
b10010110011001000 $

#5372260000
b0 "
b0 $

#5373570000
b11010110110110000 "
b10010110011001000 $

#5373580000
b0 "
b0 $

#5374890000
b11010110110110000 "
b10010110011001000 $

#5374900000
b0 "
b0 $

#5376210000
b11010110110110000 "
b10010110011001000 $

#5376220000
b0 "
b0 $

#5377530000
b11010110110110000 "
b10010110011001000 $

#5377540000
b0 "
b0 $

#5378850000
b11010110110110000 "
b10010110011001000 $

#5378860000
b0 "
b0 $

#5380170000
b11010110110110000 "
b10010110011001000 $

#5380180000
b0 "
b0 $

#5381490000
b11010110110110000 "
b10010110011001000 $

#5381500000
b0 "
b0 $

#5382810000
b11010110110110000 "
b10010110011001000 $

#5382820000
b0 "
b0 $

#5384130000
b11010110110110000 "
b10010110011001000 $

#5384140000
b0 "
b0 $

#5385450000
b11010110110110000 "
b10010110011001000 $

#5385460000
b0 "
b0 $

#5386770000
b11010110110110000 "
b10010110011001000 $

#5386780000
b0 "
b0 $

#5388090000
b11010110110110000 "
b10010110011001000 $

#5388100000
b0 "
b0 $

#5389410000
b11010110110110000 "
b10010110011001000 $

#5389420000
b0 "
b0 $

#5390730000
b11010110110110000 "
b10010110011001000 $

#5390740000
b0 "
b0 $

#5392050000
b11010110110110000 "
b10010110011001000 $

#5392060000
b0 "
b0 $

#5393370000
b11010110110110000 "
b10010110011001000 $

#5393380000
b0 "
b0 $

#5394690000
b11010110110110000 "
b10010110011001000 $

#5394700000
b0 "
b0 $

#5396010000
b11010110110110000 "
b10010110011001000 $

#5396020000
b0 "
b0 $

#5397330000
b11010110110110000 "
b10010110011001000 $

#5397340000
b0 "
b0 $

#5398650000
b11010110110110000 "
b10010110011001000 $

#5398660000
b0 "
b0 $

#5399970000
b11010110110110000 "
b10010110011001000 $

#5399980000
b0 "
b0 $

#5401290000
b11010110110110000 "
b10010110011001000 $

#5401300000
b0 "
b0 $

#5402610000
b11010110110110000 "
b10010110011001000 $

#5402620000
b0 "
b0 $

#5403930000
b11010110110110000 "
b10010110011001000 $

#5403940000
b0 "
b0 $

#5405250000
b11010110110110000 "
b10010110011001000 $

#5405260000
b0 "
b0 $

#5406570000
b11010110110110000 "
b10010110011001000 $

#5406580000
b0 "
b0 $

#5407890000
b11010110110110000 "
b10010110011001000 $

#5407900000
b0 "
b0 $

#5409210000
b11010110110110000 "
b10010110011001000 $

#5409220000
b0 "
b0 $

#5410530000
b11010110110110000 "
b10010110011001000 $

#5410540000
b0 "
b0 $

#5411850000
b11010110110110000 "
b10010110011001000 $

#5411860000
b0 "
b0 $

#5413170000
b11010110110110000 "
b10010110011001000 $

#5413180000
b0 "
b0 $

#5414490000
b11010110110110000 "
b10010110011001000 $

#5414500000
b0 "
b0 $

#5415810000
b11010110110110000 "
b10010110011001000 $

#5415820000
b0 "
b0 $

#5417130000
b11010110110110000 "
b10010110011001000 $

#5417140000
b0 "
b0 $

#5418450000
b11010110110110000 "
b10010110011001000 $

#5418460000
b0 "
b0 $

#5419770000
b11010110110110000 "
b10010110011001000 $

#5419780000
b0 "
b0 $

#5421090000
b11010110110110000 "
b10010110011001000 $

#5421100000
b0 "
b0 $

#5422410000
b11010110110110000 "
b10010110011001000 $

#5422420000
b0 "
b0 $

#5423730000
b11010110110110000 "
b10010110011001000 $

#5423740000
b0 "
b0 $

#5425050000
b11010110110110000 "
b10010110011001000 $

#5425060000
b0 "
b0 $

#5426370000
b11010110110110000 "
b10010110011001000 $

#5426380000
b0 "
b0 $

#5427690000
b11010110110110000 "
b10010110011001000 $

#5427700000
b0 "
b0 $

#5429010000
b11010110110110000 "
b10010110011001000 $

#5429020000
b0 "
b0 $

#5430330000
b11010110110110000 "
b10010110011001000 $

#5430340000
b0 "
b0 $

#5431650000
b11010110110110000 "
b10010110011001000 $

#5431660000
b0 "
b0 $

#5432970000
b11010110110110000 "
b10010110011001000 $

#5432980000
b0 "
b0 $

#5434290000
b11010110110110000 "
b10010110011001000 $

#5434300000
b0 "
b0 $

#5435610000
b11010110110110000 "
b10010110011001000 $

#5435620000
b0 "
b0 $

#5436930000
b11010110110110000 "
b10010110011001000 $

#5436940000
b0 "
b0 $

#5438250000
b11010110110110000 "
b10010110011001000 $

#5438260000
b0 "
b0 $

#5439570000
b11010110110110000 "
b10010110011001000 $

#5439580000
b0 "
b0 $

#5440890000
b11010110110110000 "
b10010110011001000 $

#5440900000
b0 "
b0 $

#5442210000
b11010110110110000 "
b10010110011001000 $

#5442220000
b0 "
b0 $

#5443530000
b11010110110110000 "
b10010110011001000 $

#5443540000
b0 "
b0 $

#5444850000
b11010110110110000 "
b10010110011001000 $

#5444860000
b0 "
b0 $

#5446170000
b11010110110110000 "
b10010110011001000 $

#5446180000
b0 "
b0 $

#5447490000
b11010110110110000 "
b10010110011001000 $

#5447500000
b0 "
b0 $

#5448810000
b11010110110110000 "
b10010110011001000 $

#5448820000
b0 "
b0 $

#5450130000
b11010110110110000 "
b10010110011001000 $

#5450140000
b0 "
b0 $

#5451450000
b11010110110110000 "
b10010110011001000 $

#5451460000
b0 "
b0 $

#5452770000
b11010110110110000 "
b10010110011001000 $

#5452780000
b0 "
b0 $

#5454090000
b11010110110110000 "
b10010110011001000 $

#5454100000
b0 "
b0 $

#5455410000
b11010110110110000 "
b10010110011001000 $

#5455420000
b0 "
b0 $

#5456730000
b11010110110110000 "
b10010110011001000 $

#5456740000
b0 "
b0 $

