VR422016_Fabio_Fiorio_01/Solutions/Heterogeneous_Platform/trace.vcd
$date
    Sat Oct  5 19:25:22 2019
$end

$version
    2.1
$end

$timescale
      1 ps
$end

$scope module SystemC_AMS $end

$var real 1 !  m_livello_acqua $end

$upscope $end

$enddefinitions $end


#0
r0.000000000000000 !

#7000000000
r7.499887501687473e-05 !

#8000000000
r0.0002249943751181227 !

#9000000000
r0.0004499842504387394 !

#10000000000
r0.0007499662511812151 !

#11000000000
r0.001124938127615533 !

#12000000000
r0.001574897630079168 !

#13000000000
r0.002099842508977082 !

#14000000000
r0.002699770514781725 !

#15000000000
r0.003374679398033033 !

#16000000000
r0.004124566909338424 !

#17000000000
r0.004949430799372794 !

#18000000000
r0.005849268818878520 !

#19000000000
r0.006824078718665456 !

#20000000000
r0.007873858249610932 !

#21000000000
r0.008998605162659750 !

#22000000000
r0.01019831720882418 !

#23000000000
r0.01147299213918396 !

#24000000000
r0.01282262770488630 !

#25000000000
r0.01424722165714587 !

#26000000000
r0.01574677174724480 !

#27000000000
r0.01732127572653270 !

#28000000000
r0.01897073134642660 !

#29000000000
r0.02069513635841103 !

#30000000000
r0.02249448851403795 !

#31000000000
r0.02436878556492676 !

#32000000000
r0.02631802526276434 !

#33000000000
r0.02834220535930501 !

#34000000000
r0.03044132360637052 !

#35000000000
r0.03261537775585009 !

#36000000000
r0.03486436555970036 !

#37000000000
r0.03718828476994541 !

#38000000000
r0.03958713313867677 !

#39000000000
r0.04206090841805343 !

#40000000000
r0.04460960836030176 !

#41000000000
r0.04723323071771560 !

#42000000000
r0.04993177324265620 !

#43000000000
r0.05270523368755225 !

#44000000000
r0.05555360980489987 !

#45000000000
r0.05847689934726258 !

#46000000000
r0.06147510006727136 !

#47000000000
r0.06454820971762459 !

#48000000000
r0.06769622605108806 !

#49000000000
r0.07091914682049498 !

#50000000000
r0.07421696977874598 !

#51000000000
r0.07758969267880911 !

#52000000000
r0.08103731327371982 !

#53000000000
r0.08455982931658097 !

#54000000000
r0.08815723856056282 !

#55000000000
r0.09182953875890303 !

#56000000000
r0.09557672766490669 !

#57000000000
r0.09939880303194625 !

#58000000000
r0.1032957626134616 !

#59000000000
r0.1072676041629599 !

#60000000000
r0.1113143254340160 !

#61000000000
r0.1154359241802718 !

#62000000000
r0.1196323981554368 !

#63000000000
r0.1239037451132877 !

#64000000000
r0.1282499628076689 !

#65000000000
r0.1326710489924919 !

#66000000000
r0.1371670014217357 !

#67000000000
r0.1417378178494467 !

#68000000000
r0.1463834960297385 !

#69000000000
r0.1511040337167923 !

#70000000000
r0.1558994286648566 !

#71000000000
r0.1607696786282472 !

#72000000000
r0.1657147813613474 !

#73000000000
r0.1707347346186077 !

#74000000000
r0.1758295361545461 !

#75000000000
r0.1809991837237479 !

#76000000000
r0.1862436750808659 !

#77000000000
r0.1915630079806200 !

#78000000000
r0.1969571801777976 !

#79000000000
r0.2024261894272536 !

#80000000000
r0.2079700334839100 !

#81000000000
r0.2135887101027562 !

#82000000000
r0.2192822170388490 !

#83000000000
r0.2250505520473127 !

#84000000000
r0.2308937128833388 !

#85000000000
r0.2368116973021860 !

#86000000000
r0.2428045030591806 !

#87000000000
r0.2488721279097161 !

#88000000000
r0.2550145696092533 !

#89000000000
r0.2612318259133205 !

#90000000000
r0.2675238945775131 !

#91000000000
r0.2738907733574941 !

#92000000000
r0.2803324600089936 !

#93000000000
r0.2868489522878092 !

#94000000000
r0.2934402479498056 !

#95000000000
r0.3001063447509150 !

#96000000000
r0.3068472404471370 !

#97000000000
r0.3136629327945384 !

#98000000000
r0.3205534195492533 !

#99000000000
r0.3275186984674830 !

#100000000000
r0.3345587673054964 !

#101000000000
r0.3416736238196295 !

#102000000000
r0.3488632657662857 !

#103000000000
r0.3561276909019357 !

#104000000000
r0.3634668969831175 !

#105000000000
r0.3708808817664363 !

#106000000000
r0.3783696430085647 !

#107000000000
r0.3859331784662426 !

#108000000000
r0.3935714858962773 !

#109000000000
r0.4012845630555430 !

#110000000000
r0.4090724077009816 !

#111000000000
r0.4169350175896022 !

#112000000000
r0.4248723904784812 !

#113000000000
r0.4328845241247622 !

#114000000000
r0.4409714162856561 !

#115000000000
r0.4491330647184410 !

#116000000000
r0.4573694671804626 !

#117000000000
r0.4656806214291334 !

#118000000000
r0.4740665252219336 !

#119000000000
r0.4825271763164105 !

#120000000000
r0.4910625724701788 !

#121000000000
r0.4996727114409201 !

#122000000000
r0.5083575909863836 !

#123000000000
r0.5171172088643858 !

#124000000000
r0.5259515628328104 !

#125000000000
r0.5348606506496082 !

#126000000000
r0.5438444700727973 !

#127000000000
r0.5529030188604633 !

#128000000000
r0.5620362947707590 !

#129000000000
r0.5712442955619041 !

#130000000000
r0.5805270189921858 !

#131000000000
r0.5898844628199587 !

#132000000000
r0.5993166248036443 !

#133000000000
r0.6088235027017318 !

#134000000000
r0.6184050942727773 !

#135000000000
r0.6280613972754042 !

#136000000000
r0.6377924094683031 !

#137000000000
r0.6475981286102319 !

#138000000000
r0.6574785524600160 !

#139000000000
r0.6674336787765476 !

#140000000000
r0.6774635053187863 !

#141000000000
r0.6875680298457589 !

#142000000000
r0.6977472501165596 !

#143000000000
r0.7080011638903495 !

#144000000000
r0.7183297689263572 !

#145000000000
r0.7287330629838786 !

#146000000000
r0.7392110438222766 !

#147000000000
r0.7497637092009815 !

#148000000000
r0.7603910568794903 !

#149000000000
r0.7710930846173679 !

#150000000000
r0.7818697901742462 !

#151000000000
r0.7927211713098239 !

#152000000000
r0.8036472257838676 !

#153000000000
r0.8146479513562108 !

#154000000000
r0.8257233457867539 !

#155000000000
r0.8368734068354645 !

#156000000000
r0.8480981322623780 !

#157000000000
r0.8593975198275966 !

#158000000000
r0.8707715672912899 !

#159000000000
r0.8822202724136944 !

#160000000000
r0.8937436329551139 !

#161000000000
r0.9053416466759197 !

#162000000000
r0.9170143113365495 !

#163000000000
r0.9287616246975091 !

#164000000000
r0.9405835845193710 !

#165000000000
r0.9524801885627748 !

#166000000000
r0.9644514345884277 !

#167000000000
r0.9764973203571037 !

#168000000000
r0.9886178436296440 !

#169000000000
r1.000813002166957 !

#170000000000
r1.013082793730019 !

#171000000000
r1.025427216079872 !

#172000000000
r1.037846266977626 !

#173000000000
r1.050339944184459 !

#174000000000
r1.062908245461614 !

#175000000000
r1.075551168570403 !

#176000000000
r1.088268711272206 !

#177000000000
r1.101060871328467 !

#178000000000
r1.113927646500699 !

#179000000000
r1.126869034550483 !

#180000000000
r1.139885033239467 !

#181000000000
r1.152975640329363 !

#182000000000
r1.166140853581954 !

#183000000000
r1.179380670759089 !

#184000000000
r1.192695089622683 !

#185000000000
r1.206084107934720 !

#186000000000
r1.219547723457250 !

#187000000000
r1.233085933952389 !

#188000000000
r1.246698737182321 !

#189000000000
r1.260386130909300 !

#190000000000
r1.274148112895644 !

#191000000000
r1.287984680903737 !

#192000000000
r1.301895832696033 !

#193000000000
r1.315881566035052 !

#194000000000
r1.329941878683381 !

#195000000000
r1.344076768403675 !

#196000000000
r1.358286232958655 !

#197000000000
r1.372570270111110 !

#198000000000
r1.386928877623893 !

#199000000000
r1.401362053259930 !

#200000000000
r1.415869794782209 !

#201000000000
r1.430452099953789 !

#202000000000
r1.445108966537791 !

#203000000000
r1.459840392297409 !

#204000000000
r1.474646374995899 !

#205000000000
r1.489526912396588 !

#206000000000
r1.504482002262868 !

#207000000000
r1.519511642358199 !

#208000000000
r1.534615830446107 !

#209000000000
r1.549794564290186 !

#210000000000
r1.565047841654096 !

#211000000000
r1.580375660301567 !

#212000000000
r1.595778017996393 !

#213000000000
r1.611254912502435 !

#214000000000
r1.626806341583624 !

#215000000000
r1.642432303003956 !

#216000000000
r1.658132794527493 !

#217000000000
r1.673907813918367 !

#218000000000
r1.689757358940774 !

#219000000000
r1.705681427358979 !

#220000000000
r1.721680016937314 !

#221000000000
r1.737753125440179 !

#222000000000
r1.753900750632038 !

#223000000000
r1.770122890277424 !

#224000000000
r1.786419542140938 !

#225000000000
r1.802790703987246 !

#226000000000
r1.819236373581082 !

#227000000000
r1.835756548687248 !

#228000000000
r1.852351227070612 !

#229000000000
r1.869020406496108 !

#230000000000
r1.885764084728740 !

#231000000000
r1.902582259533576 !

#232000000000
r1.919474928675753 !

#233000000000
r1.936442089920474 !

#234000000000
r1.953483741033010 !

#235000000000
r1.970599879778699 !

#236000000000
r1.987790503922943 !

#237000000000
r2.005055611231216 !

#238000000000
r2.022395199469055 !

#239000000000
r2.039809266402067 !

#240000000000
r2.057297809795923 !

#241000000000
r2.074860827416364 !

#242000000000
r2.092498317029198 !

#243000000000
r2.110210276400296 !

#244000000000
r2.127996703295600 !

#245000000000
r2.145857595481119 !

#246000000000
r2.163792950722926 !

#247000000000
r2.181802766787163 !

#248000000000
r2.199887041440039 !

#249000000000
r2.218045772447831 !

#250000000000
r2.236278957576880 !

#251000000000
r2.254586594593599 !

#252000000000
r2.272968681264461 !

#253000000000
r2.291425215356012 !

#254000000000
r2.309956194634863 !

#255000000000
r2.328561616867690 !

#256000000000
r2.347241479821240 !

#257000000000
r2.365995781262323 !

#258000000000
r2.384824518957819 !

#259000000000
r2.403727690674675 !

#260000000000
r2.422705294179902 !

#261000000000
r2.441757327240581 !

#262000000000
r2.460883787623858 !

#263000000000
r2.480084673096947 !

#264000000000
r2.499359981427130 !

#265000000000
r2.518709710381753 !

#266000000000
r2.538133857728232 !

#267000000000
r2.557632421234047 !

#268000000000
r2.577205398666748 !

#269000000000
r2.596852787793951 !

#270000000000
r2.616574586383338 !

#271000000000
r2.636370792202659 !

#272000000000
r2.656241403019730 !

#273000000000
r2.676186416602436 !

#274000000000
r2.696205830718726 !

#275000000000
r2.716299643136618 !

#276000000000
r2.736467851624196 !

#277000000000
r2.756710453949611 !

#278000000000
r2.777027447881083 !

#279000000000
r2.797418831186897 !

#280000000000
r2.817884601635405 !

#281000000000
r2.838424756995026 !

#282000000000
r2.859039295034246 !

#283000000000
r2.879728213521619 !

#284000000000
r2.900491510225763 !

#285000000000
r2.921329182915366 !

#286000000000
r2.942241229359182 !

#287000000000
r2.963227647326031 !

#288000000000
r2.984288434584803 !

#289000000000
r3.005423588904450 !

#290000000000
r3.026633108053995 !

#291000000000
r3.047916989802527 !

#292000000000
r3.069275231919202 !

#293000000000
r3.090707832173241 !

#294000000000
r3.112214788333934 !

#295000000000
r3.133796098170637 !

#296000000000
r3.155451759452772 !

#297000000000
r3.177181769949831 !

#298000000000
r3.198986127431371 !

#299000000000
r3.220864829667014 !

#300000000000
r3.242817874426453 !

#301000000000
r3.264845259479444 !

#302000000000
r3.286946982595814 !

#303000000000
r3.309123041545452 !

#304000000000
r3.331373434098317 !

#305000000000
r3.353698158024435 !

#306000000000
r3.376097211093898 !

#307000000000
r3.398570591076866 !

#308000000000
r3.421118295743565 !

#309000000000
r3.443740322864286 !

#310000000000
r3.466436670209390 !

#311000000000
r3.489207335549304 !

#312000000000
r3.512052316654521 !

#313000000000
r3.534971611295603 !

#314000000000
r3.557965217243174 !

#315000000000
r3.581033132267931 !

#316000000000
r3.604175354140635 !

#317000000000
r3.627391880632114 !

#318000000000
r3.650682709513262 !

#319000000000
r3.674047838555040 !

#320000000000
r3.697487265528479 !

#321000000000
r3.721000988204672 !

#322000000000
r3.744589004354784 !

#323000000000
r3.768251311750043 !

#324000000000
r3.791987908161745 !

#325000000000
r3.815798791361253 !

#326000000000
r3.839683959119995 !

#327000000000
r3.863643409209470 !

#328000000000
r3.887677139401241 !

#329000000000
r3.911785147466938 !

#330000000000
r3.935967431178259 !

#331000000000
r3.960223988306967 !

#332000000000
r3.984554816624894 !

#333000000000
r4.008959913903936 !

#334000000000
r4.033439277916058 !

#335000000000
r4.057992906433292 !

#336000000000
r4.082620797227738 !

#337000000000
r4.107322948071558 !

#338000000000
r4.132099356736986 !

#339000000000
r4.156950020996319 !

#340000000000
r4.181874938621926 !

#341000000000
r4.206874107386238 !

#342000000000
r4.231947525061751 !

#343000000000
r4.257095189421035 !

#344000000000
r4.282317098236721 !

#345000000000
r4.307613249281508 !

#346000000000
r4.332983640328165 !

#347000000000
r4.358428269149524 !

#348000000000
r4.383947133518483 !

#349000000000
r4.409540231208013 !

#350000000000
r4.435207559991145 !

#351000000000
r4.460949117640981 !

#352000000000
r4.486764901930687 !

#353000000000
r4.512654910633499 !

#354000000000
r4.538619141522716 !

#355000000000
r4.564657592371708 !

#356000000000
r4.590770260953907 !

#357000000000
r4.616957145042817 !

#358000000000
r4.643218242412005 !

#359000000000
r4.669553550835108 !

#360000000000
r4.695963068085825 !

#361000000000
r4.722446791937923 !

#362000000000
r4.749004720165241 !

#363000000000
r4.775636850541680 !

#364000000000
r4.802343180841210 !

#365000000000
r4.829123708837866 !

#366000000000
r4.855978432305749 !

#367000000000
r4.882907349019030 !

#368000000000
r4.909910456751945 !

#369000000000
r4.936987753278793 !

#370000000000
r4.964139236373947 !

#371000000000
r4.991214906061812 !

#372000000000
r5.018214764616753 !

#373000000000
r5.045138814313069 !

#374000000000
r5.071987057424993 !

#375000000000
r5.098759496226688 !

#376000000000
r5.125456132992249 !

#377000000000
r5.152076969995704 !

#378000000000
r5.178622009511013 !

#379000000000
r5.205091253812064 !

#380000000000
r5.231484705172679 !

#381000000000
r5.257802365866613 !

#382000000000
r5.284044238167552 !

#383000000000
r5.310210324349114 !

#384000000000
r5.336300626684849 !

#385000000000
r5.362315147448238 !

#386000000000
r5.388253888912693 !

#387000000000
r5.414116853351560 !

#388000000000
r5.439904043038115 !

#389000000000
r5.465615460245566 !

#390000000000
r5.491251107247053 !

#391000000000
r5.516810986315649 !

#392000000000
r5.542295099724359 !

#393000000000
r5.567703449746118 !

#394000000000
r5.593036038653792 !

#395000000000
r5.618292868720182 !

#396000000000
r5.643473942218019 !

#397000000000
r5.668579261419965 !

#398000000000
r5.693608828598616 !

#399000000000
r5.718562646026497 !

#400000000000
r5.743440715976067 !

#401000000000
r5.768243040719717 !

#402000000000
r5.792969622529769 !

#403000000000
r5.817620463678476 !

#404000000000
r5.842195566438024 !

#405000000000
r5.866694933080531 !

#406000000000
r5.891118565878046 !

#407000000000
r5.915466467102550 !

#408000000000
r5.939738639025958 !

#409000000000
r5.963935083920115 !

#410000000000
r5.988055804056795 !

#411000000000
r6.012100801707710 !

#412000000000
r6.036070079144499 !

#413000000000
r6.059963638638734 !

#414000000000
r6.083781482461917 !

#415000000000
r6.107523612885485 !

#416000000000
r6.131190032180807 !

#417000000000
r6.154780742619185 !

#418000000000
r6.178295746471848 !

#419000000000
r6.201735046009961 !

#420000000000
r6.225098643504619 !

#421000000000
r6.248386541226848 !

#422000000000
r6.271598741447608 !

#423000000000
r6.294735246437789 !

#424000000000
r6.317796058468216 !

#425000000000
r6.340781179809642 !

#426000000000
r6.363690612732755 !

#427000000000
r6.386524359508173 !

#428000000000
r6.409282422406444 !

#429000000000
r6.431964803698052 !

#430000000000
r6.454571505653410 !

#431000000000
r6.477102530542866 !

#432000000000
r6.499557880636698 !

#433000000000
r6.521937558205116 !

#434000000000
r6.544241565518261 !

#435000000000
r6.566469904846206 !

#436000000000
r6.588622578458956 !

#437000000000
r6.610699588626449 !

#438000000000
r6.632700937618554 !

#439000000000
r6.654626627705074 !

#440000000000
r6.676476661155742 !

#441000000000
r6.698251040240222 !

#442000000000
r6.719949767228111 !

#443000000000
r6.741572844388938 !

#444000000000
r6.763120273992164 !

#445000000000
r6.784592058307180 !

#446000000000
r6.805988199603312 !

#447000000000
r6.827308700149816 !

#448000000000
r6.848553562215881 !

#449000000000
r6.869722788070626 !

#450000000000
r6.890816379983105 !

#451000000000
r6.911834340222302 !

#452000000000
r6.932776671057132 !

#453000000000
r6.953643374756445 !

#454000000000
r6.974434453589020 !

#455000000000
r6.995149909823570 !

#456000000000
r7.015789745728738 !

#457000000000
r7.036353963573100 !

#458000000000
r7.056842565625163 !

#459000000000
r7.077255554153368 !

#460000000000
r7.097592931426083 !

#461000000000
r7.117854699711616 !

#462000000000
r7.138040861278201 !

#463000000000
r7.158151418394006 !

#464000000000
r7.178186373327131 !

#465000000000
r7.198145728345607 !

#466000000000
r7.218029485717397 !

#467000000000
r7.237837647710395 !

#468000000000
r7.257570216592432 !

#469000000000
r7.277227194631265 !

#470000000000
r7.296808584094584 !

#471000000000
r7.316314387250014 !

#472000000000
r7.335744606365108 !

#473000000000
r7.355099243707357 !

#474000000000
r7.374378301544181 !

#475000000000
r7.393581782142927 !

#476000000000
r7.412709687770878 !

#477000000000
r7.431762020695252 !

#478000000000
r7.450738783183194 !

#479000000000
r7.469639977501783 !

#480000000000
r7.488465605918032 !

#481000000000
r7.507215670698883 !

#482000000000
r7.525890174111211 !

#483000000000
r7.544489118421825 !

#484000000000
r7.563012505897461 !

#485000000000
r7.581460338804791 !

#486000000000
r7.599832619410417 !

#487000000000
r7.618129349980877 !

#488000000000
r7.636350532782636 !

#489000000000
r7.654496170082093 !

#490000000000
r7.672566264145580 !

#491000000000
r7.690560817239358 !

#492000000000
r7.708479831629626 !

#493000000000
r7.726323309582510 !

#494000000000
r7.744091253364066 !

#495000000000
r7.761783665240286 !

#496000000000
r7.779400547477096 !

#497000000000
r7.796941902340350 !

#498000000000
r7.814407732095834 !

#499000000000
r7.831798039009267 !

#500000000000
r7.849112825346301 !

#501000000000
r7.866352093372520 !

#502000000000
r7.883515845353441 !

#503000000000
r7.900604083554509 !

#504000000000
r7.917616810241102 !

#505000000000
r7.934554027678533 !

#506000000000
r7.951415738132044 !

#507000000000
r7.968201943866815 !

#508000000000
r7.984912647147951 !

#509000000000
r8.001547850240492 !

#510000000000
r8.018107555409408 !

#511000000000
r8.034591764919604 !

#512000000000
r8.051000481035917 !

#513000000000
r8.067333706023112 !

#514000000000
r8.083591442145888 !

#515000000000
r8.099773691668883 !

#516000000000
r8.115880456856658 !

#517000000000
r8.131911739973708 !

#518000000000
r8.147867543284461 !

#519000000000
r8.163747869053278 !

#520000000000
r8.179552719544450 !

#521000000000
r8.195282097022201 !

#522000000000
r8.210936003750689 !

#523000000000
r8.226514441994004 !

#524000000000
r8.242017414016166 !

#525000000000
r8.257444922081126 !

#526000000000
r8.272796968452768 !

#527000000000
r8.288073555394911 !

#528000000000
r8.303274685171303 !

#529000000000
r8.318400360045626 !

#530000000000
r8.333450582281491 !

#531000000000
r8.348425354142444 !

#532000000000
r8.363324677891963 !

#533000000000
r8.378148555793459 !

#534000000000
r8.392896990110271 !

#535000000000
r8.407569983105676 !

#536000000000
r8.422167537042874 !

#537000000000
r8.436689654185004 !

#538000000000
r8.451136336795138 !

#539000000000
r8.465507587136278 !

#540000000000
r8.479803407471362 !

#541000000000
r8.494023800063250 !

#542000000000
r8.508168767174739 !

#543000000000
r8.522238311068564 !

#544000000000
r8.536232434007388 !

#545000000000
r8.550151138253806 !

#546000000000
r8.563994426070343 !

#547000000000
r8.577762299719456 !

#548000000000
r8.591454761463540 !

#549000000000
r8.605071813564916 !

#550000000000
r8.618613458285839 !

#551000000000
r8.632079697888500 !

#552000000000
r8.645470534635015 !

#553000000000
r8.658785970787434 !

#554000000000
r8.672026008607743 !

#555000000000
r8.685190650357857 !

#556000000000
r8.698279898299626 !

#557000000000
r8.711293754694832 !

#558000000000
r8.724232221805185 !

#559000000000
r8.737095301892326 !

#560000000000
r8.749882997217838 !

#561000000000
r8.762595310043231 !

#562000000000
r8.775232242629944 !

#563000000000
r8.787793797239345 !

#564000000000
r8.800279976132742 !

#565000000000
r8.812690781571376 !

#566000000000
r8.825026215816417 !

#567000000000
r8.837286281128964 !

#568000000000
r8.849470979770054 !

#569000000000
r8.861580314000649 !

#570000000000
r8.873614286081651 !

#571000000000
r8.885572898273885 !

#572000000000
r8.897456152838117 !

#573000000000
r8.909264052035043 !

#574000000000
r8.920996598125289 !

#575000000000
r8.932653793369415 !

#576000000000
r8.944235640027912 !

#577000000000
r8.955742140361206 !

#578000000000
r8.967173296629653 !

#579000000000
r8.978529111093540 !

#580000000000
r8.989809586013083 !

#581000000000
r9.001014723648437 !

#582000000000
r9.012144526259689 !

#583000000000
r9.023198996106855 !

#584000000000
r9.034178135449883 !

#585000000000
r9.045081946548656 !

#586000000000
r9.055910431662985 !

#587000000000
r9.066663593052617 !

#588000000000
r9.077341432977228 !

#589000000000
r9.087943953696428 !

#590000000000
r9.098471157469762 !

#591000000000
r9.108923046556702 !

#592000000000
r9.119299623216655 !

#593000000000
r9.129600889708962 !

#594000000000
r9.139826848292895 !

#595000000000
r9.149977501227653 !

#596000000000
r9.160052850772374 !

#597000000000
r9.170052899186125 !

#598000000000
r9.179977648727906 !

#599000000000
r9.189827101656652 !

#600000000000
r9.199601260231226 !

#601000000000
r9.209300126710424 !

#602000000000
r9.218923703352976 !

#603000000000
r9.228471992417541 !

#604000000000
r9.237944996162712 !

#605000000000
r9.247342716847017 !

#606000000000
r9.256665156728912 !

#607000000000
r9.265912318066789 !

#608000000000
r9.275084203118970 !

#609000000000
r9.284180814143710 !

#610000000000
r9.293202153399196 !

#611000000000
r9.302148223143547 !

#612000000000
r9.311019025634815 !

#613000000000
r9.319814563130986 !

#614000000000
r9.328534837889974 !

#615000000000
r9.337179852169625 !

#616000000000
r9.345749608227718 !

#617000000000
r9.354244108321971 !

#618000000000
r9.362663354710028 !

#619000000000
r9.371007349649464 !

#620000000000
r9.379276095397790 !

#621000000000
r9.387469594212446 !

#622000000000
r9.395587848350806 !

#623000000000
r9.403630860070180 !

#624000000000
r9.411598631627804 !

#625000000000
r9.419491165280848 !

#626000000000
r9.427308463286419 !

#627000000000
r9.435050527901554 !

#628000000000
r9.442717361383217 !

#629000000000
r9.450308965988306 !

#630000000000
r9.457825343973656 !

#631000000000
r9.465266497596033 !

#632000000000
r9.472632429112133 !

#633000000000
r9.479923140778585 !

#634000000000
r9.487138634851950 !

#635000000000
r9.494278913588724 !

#636000000000
r9.501343979245332 !

#637000000000
r9.508333834078135 !

#638000000000
r9.515248480343422 !

#639000000000
r9.522087920297414 !

#640000000000
r9.528852156196269 !

#641000000000
r9.535541190296074 !

#642000000000
r9.542155024852850 !

#643000000000
r9.548693662122545 !

#644000000000
r9.555157104361047 !

#645000000000
r9.561545353824176 !

#646000000000
r9.567858412767679 !

#647000000000
r9.574096283447235 !

#648000000000
r9.580258968118461 !

#649000000000
r9.586346469036904 !

#650000000000
r9.592358788458043 !

#651000000000
r9.598295928637286 !

#652000000000
r9.604157891829978 !

#653000000000
r9.609944680291397 !

#654000000000
r9.615656296276750 !

#655000000000
r9.621292742041176 !

#656000000000
r9.626854019839747 !

#657000000000
r9.632340131927473 !

#658000000000
r9.637751080559287 !

#659000000000
r9.643086867990061 !

#660000000000
r9.648347496474598 !

#661000000000
r9.653532968267628 !

#662000000000
r9.658643285623818 !

#663000000000
r9.663678450797772 !

#664000000000
r9.668638466044021 !

#665000000000
r9.673523333617025 !

#666000000000
r9.678333055771184 !

#667000000000
r9.683067634760825 !

#668000000000
r9.687727072840211 !

#669000000000
r9.692311372263537 !

#670000000000
r9.696820535284925 !

#671000000000
r9.701254564158432 !

#672000000000
r9.705613461138054 !

#673000000000
r9.709897228477708 !

#674000000000
r9.714105868431254 !

#675000000000
r9.718239383252481 !

#676000000000
r9.722297775195106 !

#677000000000
r9.726281046512781 !

#678000000000
r9.730189199459094 !

#679000000000
r9.734022236287558 !

#680000000000
r9.737780159251624 !

#681000000000
r9.741462970604678 !

#682000000000
r9.745070672600031 !

#683000000000
r9.748603267490932 !

#684000000000
r9.752060757530558 !

#685000000000
r9.755443144972020 !

#686000000000
r9.758750432068366 !

#687000000000
r9.761982621072571 !

#688000000000
r9.765139714237543 !

#689000000000
r9.768221713816123 !

#690000000000
r9.771228622061084 !

#691000000000
r9.774160441225135 !

#692000000000
r9.777017173560914 !

#693000000000
r9.779798821320993 !

#694000000000
r9.782505386757874 !

#695000000000
r9.785136872123992 !

#696000000000
r9.787693279671716 !

#697000000000
r9.790174611653347 !

#698000000000
r9.792580870321117 !

#699000000000
r9.794912057927194 !

#700000000000
r9.797168176723675 !

#701000000000
r9.799349228962592 !

#702000000000
r9.801455216895906 !

#703000000000
r9.803486142775512 !

#704000000000
r9.805442008853239 !

#705000000000
r9.807322817380847 !

#706000000000
r9.809128570610026 !

#707000000000
r9.810859270792404 !

#708000000000
r9.812514920179538 !

#709000000000
r9.814095521022919 !

#710000000000
r9.815601075573969 !

#711000000000
r9.817031586084044 !

#712000000000
r9.818387054804431 !

#713000000000
r9.819667483986349 !

#714000000000
r9.820872875880948 !

#715000000000
r9.822003232739316 !

#716000000000
r9.823058556812473 !

#717000000000
r9.824038850351368 !

#718000000000
r9.824944115606879 !

#719000000000
r9.825774354829820 !

#720000000000
r9.826529570270944 !

#721000000000
r9.827209764180930 !

#722000000000
r9.827814938810386 !

#723000000000
r9.828345096409860 !

#724000000000
r9.828800239229828 !

#725000000000
r9.829180369520698 !

#726000000000
r9.829485489532813 !

#727000000000
r9.829715601516448 !

#728000000000
r9.829870707721810 !

#729000000000
r9.829950810399037 !

#730000000000
r9.829955911798203 !

#731000000000
r9.829886014169313 !

#732000000000
r9.829741119762303 !

#733000000000
r9.829521230827046 !

#734000000000
r9.829226349613341 !

#735000000000
r9.828931477245941 !

#736000000000
r9.828636613724580 !

#737000000000
r9.828341759048991 !

#738000000000
r9.828046913218909 !

#739000000000
r9.827752076234068 !

#740000000000
r9.827457248094202 !

#741000000000
r9.827162428799049 !

#742000000000
r9.826867618348345 !

#743000000000
r9.826572816741821 !

#744000000000
r9.826278023979212 !

#745000000000
r9.825983240060252 !

#746000000000
r9.825688464984676 !

#747000000000
r9.825393698752221 !

#748000000000
r9.825098941362620 !

#749000000000
r9.824804192815609 !

#750000000000
r9.824509453110922 !

#751000000000
r9.824214722248295 !

#752000000000
r9.823920000227458 !

#753000000000
r9.823625287048147 !

#754000000000
r9.823330582710099 !

#755000000000
r9.823035887213051 !

#756000000000
r9.822741200556734 !

#757000000000
r9.822446522740885 !

#758000000000
r9.822151853765236 !

#759000000000
r9.821857193629526 !

#760000000000
r9.821562542333488 !

#761000000000
r9.821267899876855 !

#762000000000
r9.820973266259362 !

#763000000000
r9.820678641480747 !

#764000000000
r9.820384025540742 !

#765000000000
r9.820089418439080 !

#766000000000
r9.819794820175501 !

#767000000000
r9.819500230749737 !

#768000000000
r9.819205650161523 !

#769000000000
r9.818911078410594 !

#770000000000
r9.818616515496684 !

#771000000000
r9.818321961419530 !

#772000000000
r9.818027416178866 !

#773000000000
r9.817732879774427 !

#774000000000
r9.817438352205945 !

#775000000000
r9.817143833473160 !

#776000000000
r9.816849323575806 !

#777000000000
r9.816554822513616 !

#778000000000
r9.816260330286328 !

#779000000000
r9.815965846893674 !

#780000000000
r9.815671372335387 !

#781000000000
r9.815376906611204 !

#782000000000
r9.815082449720860 !

#783000000000
r9.814788001664088 !

#784000000000
r9.814493562440626 !

#785000000000
r9.814199132050209 !

#786000000000
r9.813904710492571 !

#787000000000
r9.813610297767447 !

#788000000000
r9.813315893874572 !

#789000000000
r9.813021498813683 !

#790000000000
r9.812727112584515 !

#791000000000
r9.812432735186800 !

#792000000000
r9.812138366620273 !

#793000000000
r9.811844006884670 !

#794000000000
r9.811549655979727 !

#795000000000
r9.811255313905178 !

#796000000000
r9.810960980660759 !

#797000000000
r9.810666656246207 !

#798000000000
r9.810372340661253 !

#799000000000
r9.810078033905633 !

#800000000000
r9.809783735979083 !

#801000000000
r9.809489446881340 !

#802000000000
r9.809195166612136 !

#803000000000
r9.808900895171210 !

#804000000000
r9.808606632558295 !

#805000000000
r9.808312378773124 !

#806000000000
r9.808018133815432 !

#807000000000
r9.807723897684957 !

#808000000000
r9.807429670381435 !

#809000000000
r9.807135451904600 !

#810000000000
r9.806841242254187 !

#811000000000
r9.806547041429932 !

#812000000000
r9.806252849431571 !

#813000000000
r9.805958666258839 !

#814000000000
r9.805664491911466 !

#815000000000
r9.805370326389191 !

#816000000000
r9.805076169691750 !

#817000000000
r9.804782021818880 !

#818000000000
r9.804487882770314 !

#819000000000
r9.804193752545785 !

#820000000000
r9.803899631145029 !

#821000000000
r9.803605518567780 !

#822000000000
r9.803311414813779 !

#823000000000
r9.803017319882761 !

#824000000000
r9.802723233774458 !

#825000000000
r9.802429156488603 !

#826000000000
r9.802135088024936 !

#827000000000
r9.801841028383192 !

#828000000000
r9.801546977563104 !

#829000000000
r9.801252935564408 !

#830000000000
r9.800958902386837 !

#831000000000
r9.800664878030130 !

#832000000000
r9.800370862494022 !

#833000000000
r9.800076855778249 !

#834000000000
r9.799782857882546 !

#835000000000
r9.799488868806646 !

#836000000000
r9.799194888550286 !

#837000000000
r9.798900917113201 !

#838000000000
r9.798606954495130 !

#839000000000
r9.798313000695803 !

#840000000000
r9.798019055714956 !

#841000000000
r9.797725119552329 !

#842000000000
r9.797431192207656 !

#843000000000
r9.797137273680670 !

#844000000000
r9.796843363971108 !

#845000000000
r9.796549463078703 !

#846000000000
r9.796255571003192 !

#847000000000
r9.795961687744313 !

#848000000000
r9.795667813301801 !

#849000000000
r9.795373947675388 !

#850000000000
r9.795080090864811 !

#851000000000
r9.794786242869804 !

#852000000000
r9.794492403690104 !

#853000000000
r9.794198573325446 !

#854000000000
r9.793904751775568 !

#855000000000
r9.793610939040207 !

#856000000000
r9.793317135119096 !

#857000000000
r9.793023340011969 !

#858000000000
r9.792729553718562 !

#859000000000
r9.792435776238614 !

#860000000000
r9.792142007571858 !

#861000000000
r9.791848247718029 !

#862000000000
r9.791554496676865 !

#863000000000
r9.791260754448100 !

#864000000000
r9.790967021031468 !

#865000000000
r9.790673296426707 !

#866000000000
r9.790379580633553 !

#867000000000
r9.790085873651741 !

#868000000000
r9.789792175481002 !

#869000000000
r9.789498486121078 !

