VR422016_Fabio_Fiorio_01/Solutions/Heterogeneous_Platform/trace.vcd
$date
    Mon Sep 30 15:52:41 2019
$end

$version
    2.1
$end

$timescale
      1 ps
$end

$scope module SystemC_AMS $end

$var real 1 !  m_livello_acqua $end

$upscope $end

$enddefinitions $end


#0
r0.000000000000000 !

#5000000000
r7.499887501687473e-05 !

#6000000000
r0.0002249943751181227 !

#7000000000
r0.0004499842504387394 !

#8000000000
r0.0007499662511812151 !

#9000000000
r0.001124938127615533 !

#10000000000
r0.001574897630079168 !

#11000000000
r0.002099842508977082 !

#12000000000
r0.002699770514781725 !

#13000000000
r0.003374679398033033 !

#14000000000
r0.004124566909338424 !

#15000000000
r0.004949430799372794 !

#16000000000
r0.005849268818878520 !

#17000000000
r0.006824078718665456 !

#18000000000
r0.007873858249610932 !

#19000000000
r0.008998605162659750 !

#20000000000
r0.01019831720882418 !

#21000000000
r0.01147299213918396 !

#22000000000
r0.01282262770488630 !

#23000000000
r0.01424722165714587 !

#24000000000
r0.01574677174724480 !

#25000000000
r0.01732127572653270 !

#26000000000
r0.01897073134642660 !

#27000000000
r0.02069513635841103 !

#28000000000
r0.02249448851403795 !

#29000000000
r0.02436878556492676 !

#30000000000
r0.02631802526276434 !

#31000000000
r0.02834220535930501 !

#32000000000
r0.03044132360637052 !

#33000000000
r0.03261537775585009 !

#34000000000
r0.03486436555970036 !

#35000000000
r0.03718828476994541 !

#36000000000
r0.03958713313867677 !

#37000000000
r0.04206090841805343 !

#38000000000
r0.04460960836030176 !

#39000000000
r0.04723323071771560 !

#40000000000
r0.04993177324265620 !

#41000000000
r0.05270523368755225 !

#42000000000
r0.05555360980489987 !

#43000000000
r0.05847689934726258 !

#44000000000
r0.06147510006727136 !

#45000000000
r0.06454820971762459 !

#46000000000
r0.06769622605108806 !

#47000000000
r0.07091914682049498 !

#48000000000
r0.07421696977874598 !

#49000000000
r0.07758969267880911 !

#50000000000
r0.08103731327371982 !

#51000000000
r0.08455982931658097 !

#52000000000
r0.08815723856056282 !

#53000000000
r0.09182953875890303 !

#54000000000
r0.09557672766490669 !

#55000000000
r0.09939880303194625 !

#56000000000
r0.1032957626134616 !

#57000000000
r0.1072676041629599 !

#58000000000
r0.1113143254340160 !

#59000000000
r0.1154359241802718 !

#60000000000
r0.1196323981554368 !

#61000000000
r0.1239037451132877 !

#62000000000
r0.1282499628076689 !

#63000000000
r0.1326710489924919 !

#64000000000
r0.1371670014217357 !

#65000000000
r0.1417378178494467 !

#66000000000
r0.1463834960297385 !

#67000000000
r0.1511040337167923 !

#68000000000
r0.1558994286648566 !

#69000000000
r0.1607696786282472 !

#70000000000
r0.1657147813613474 !

#71000000000
r0.1707347346186077 !

#72000000000
r0.1758295361545461 !

#73000000000
r0.1809991837237479 !

#74000000000
r0.1862436750808659 !

#75000000000
r0.1915630079806200 !

#76000000000
r0.1969571801777976 !

#77000000000
r0.2024261894272536 !

#78000000000
r0.2079700334839100 !

#79000000000
r0.2135887101027562 !

#80000000000
r0.2192822170388490 !

#81000000000
r0.2250505520473127 !

#82000000000
r0.2308937128833388 !

#83000000000
r0.2368116973021860 !

#84000000000
r0.2428045030591806 !

#85000000000
r0.2488721279097161 !

#86000000000
r0.2550145696092533 !

#87000000000
r0.2612318259133205 !

#88000000000
r0.2675238945775131 !

#89000000000
r0.2738907733574941 !

#90000000000
r0.2803324600089936 !

#91000000000
r0.2868489522878092 !

#92000000000
r0.2934402479498056 !

#93000000000
r0.3001063447509150 !

#94000000000
r0.3068472404471370 !

#95000000000
r0.3136629327945384 !

#96000000000
r0.3205534195492533 !

#97000000000
r0.3275186984674830 !

#98000000000
r0.3345587673054964 !

#99000000000
r0.3416736238196295 !

#100000000000
r0.3488632657662857 !

#101000000000
r0.3561276909019357 !

#102000000000
r0.3634668969831175 !

#103000000000
r0.3708808817664363 !

#104000000000
r0.3783696430085647 !

#105000000000
r0.3859331784662426 !

#106000000000
r0.3935714858962773 !

#107000000000
r0.4012845630555430 !

#108000000000
r0.4090724077009816 !

#109000000000
r0.4169350175896022 !

#110000000000
r0.4248723904784812 !

#111000000000
r0.4328845241247622 !

#112000000000
r0.4409714162856561 !

#113000000000
r0.4491330647184410 !

#114000000000
r0.4573694671804626 !

#115000000000
r0.4656806214291334 !

#116000000000
r0.4740665252219336 !

#117000000000
r0.4825271763164105 !

#118000000000
r0.4910625724701788 !

#119000000000
r0.4996727114409201 !

#120000000000
r0.5083575909863836 !

#121000000000
r0.5171172088643858 !

#122000000000
r0.5259515628328104 !

#123000000000
r0.5348606506496082 !

#124000000000
r0.5438444700727973 !

#125000000000
r0.5529030188604633 !

#126000000000
r0.5620362947707590 !

#127000000000
r0.5712442955619041 !

#128000000000
r0.5805270189921858 !

#129000000000
r0.5898844628199587 !

#130000000000
r0.5993166248036443 !

#131000000000
r0.6088235027017318 !

#132000000000
r0.6184050942727773 !

#133000000000
r0.6280613972754042 !

#134000000000
r0.6377924094683031 !

#135000000000
r0.6475981286102319 !

#136000000000
r0.6574785524600160 !

#137000000000
r0.6674336787765476 !

#138000000000
r0.6774635053187863 !

#139000000000
r0.6875680298457589 !

#140000000000
r0.6977472501165596 !

#141000000000
r0.7080011638903495 !

#142000000000
r0.7183297689263572 !

#143000000000
r0.7287330629838786 !

#144000000000
r0.7392110438222766 !

#145000000000
r0.7497637092009815 !

#146000000000
r0.7603910568794903 !

#147000000000
r0.7710930846173679 !

#148000000000
r0.7818697901742462 !

#149000000000
r0.7927211713098239 !

#150000000000
r0.8036472257838676 !

#151000000000
r0.8146479513562108 !

#152000000000
r0.8257233457867539 !

#153000000000
r0.8368734068354645 !

#154000000000
r0.8480981322623780 !

#155000000000
r0.8593975198275966 !

#156000000000
r0.8707715672912899 !

#157000000000
r0.8822202724136944 !

#158000000000
r0.8937436329551139 !

#159000000000
r0.9053416466759197 !

#160000000000
r0.9170143113365495 !

#161000000000
r0.9287616246975091 !

#162000000000
r0.9405835845193710 !

#163000000000
r0.9524801885627748 !

#164000000000
r0.9644514345884277 !

#165000000000
r0.9764973203571037 !

#166000000000
r0.9886178436296440 !

#167000000000
r1.000813002166957 !

#168000000000
r1.013082793730019 !

#169000000000
r1.025427216079872 !

#170000000000
r1.037846266977626 !

#171000000000
r1.050339944184459 !

#172000000000
r1.062908245461614 !

#173000000000
r1.075551168570403 !

#174000000000
r1.088268711272206 !

#175000000000
r1.101060871328467 !

#176000000000
r1.113927646500699 !

#177000000000
r1.126869034550483 !

#178000000000
r1.139885033239467 !

#179000000000
r1.152975640329363 !

#180000000000
r1.166140853581954 !

#181000000000
r1.179380670759089 !

#182000000000
r1.192695089622683 !

#183000000000
r1.206084107934720 !

#184000000000
r1.219547723457250 !

#185000000000
r1.233085933952389 !

#186000000000
r1.246698737182321 !

#187000000000
r1.260386130909300 !

#188000000000
r1.274148112895644 !

#189000000000
r1.287984680903737 !

#190000000000
r1.301895832696033 !

#191000000000
r1.315881566035052 !

#192000000000
r1.329941878683381 !

#193000000000
r1.344076768403675 !

#194000000000
r1.358286232958655 !

#195000000000
r1.372570270111110 !

#196000000000
r1.386928877623893 !

#197000000000
r1.401362053259930 !

#198000000000
r1.415869794782209 !

#199000000000
r1.430452099953789 !

#200000000000
r1.445108966537791 !

#201000000000
r1.459840392297409 !

#202000000000
r1.474646374995899 !

#203000000000
r1.489526912396588 !

#204000000000
r1.504482002262868 !

#205000000000
r1.519511642358199 !

#206000000000
r1.534615830446107 !

#207000000000
r1.549794564290186 !

#208000000000
r1.565047841654096 !

#209000000000
r1.580375660301567 !

#210000000000
r1.595778017996393 !

#211000000000
r1.611254912502435 !

#212000000000
r1.626806341583624 !

#213000000000
r1.642432303003956 !

#214000000000
r1.658132794527493 !

#215000000000
r1.673907813918367 !

#216000000000
r1.689757358940774 !

#217000000000
r1.705681427358979 !

#218000000000
r1.721680016937314 !

#219000000000
r1.737753125440179 !

#220000000000
r1.753900750632038 !

#221000000000
r1.770122890277424 !

#222000000000
r1.786419542140938 !

#223000000000
r1.802790703987246 !

#224000000000
r1.819236373581082 !

#225000000000
r1.835756548687248 !

#226000000000
r1.852351227070612 !

#227000000000
r1.869020406496108 !

#228000000000
r1.885764084728740 !

#229000000000
r1.902582259533576 !

#230000000000
r1.919474928675753 !

#231000000000
r1.936442089920474 !

#232000000000
r1.953483741033010 !

#233000000000
r1.970599879778699 !

#234000000000
r1.987790503922943 !

#235000000000
r2.005055611231216 !

#236000000000
r2.022395199469055 !

#237000000000
r2.039809266402067 !

#238000000000
r2.057297809795923 !

#239000000000
r2.074860827416364 !

#240000000000
r2.092498317029198 !

#241000000000
r2.110210276400296 !

#242000000000
r2.127996703295600 !

#243000000000
r2.145857595481119 !

#244000000000
r2.163792950722926 !

#245000000000
r2.181802766787163 !

#246000000000
r2.199887041440039 !

#247000000000
r2.218045772447831 !

#248000000000
r2.236278957576880 !

#249000000000
r2.254586594593599 !

#250000000000
r2.272968681264461 !

#251000000000
r2.291425215356012 !

#252000000000
r2.309956194634863 !

#253000000000
r2.328561616867690 !

#254000000000
r2.347241479821240 !

#255000000000
r2.365995781262323 !

#256000000000
r2.384824518957819 !

#257000000000
r2.403727690674675 !

#258000000000
r2.422705294179902 !

#259000000000
r2.441757327240581 !

#260000000000
r2.460883787623858 !

#261000000000
r2.480084673096947 !

#262000000000
r2.499359981427130 !

#263000000000
r2.518709710381753 !

#264000000000
r2.538133857728232 !

#265000000000
r2.557632421234047 !

#266000000000
r2.577205398666748 !

#267000000000
r2.596852787793951 !

#268000000000
r2.616574586383338 !

#269000000000
r2.636370792202659 !

#270000000000
r2.656241403019730 !

#271000000000
r2.676186416602436 !

#272000000000
r2.696205830718726 !

#273000000000
r2.716299643136618 !

#274000000000
r2.736467851624196 !

#275000000000
r2.756710453949611 !

#276000000000
r2.777027447881083 !

#277000000000
r2.797418831186897 !

#278000000000
r2.817884601635405 !

#279000000000
r2.838424756995026 !

#280000000000
r2.859039295034246 !

#281000000000
r2.879728213521619 !

#282000000000
r2.900491510225763 !

#283000000000
r2.921329182915366 !

#284000000000
r2.942241229359182 !

#285000000000
r2.963227647326031 !

#286000000000
r2.984288434584803 !

#287000000000
r3.005423588904450 !

#288000000000
r3.026633108053995 !

#289000000000
r3.047916989802527 !

#290000000000
r3.069275231919202 !

#291000000000
r3.090707832173241 !

#292000000000
r3.112214788333934 !

#293000000000
r3.133796098170637 !

#294000000000
r3.155451759452772 !

#295000000000
r3.177181769949831 !

#296000000000
r3.198986127431371 !

#297000000000
r3.220864829667014 !

#298000000000
r3.242817874426453 !

#299000000000
r3.264845259479444 !

#300000000000
r3.286946982595814 !

#301000000000
r3.309123041545452 !

#302000000000
r3.331373434098317 !

#303000000000
r3.353698158024435 !

#304000000000
r3.376097211093898 !

#305000000000
r3.398570591076866 !

#306000000000
r3.421118295743565 !

#307000000000
r3.443740322864286 !

#308000000000
r3.466436670209390 !

#309000000000
r3.489207335549304 !

#310000000000
r3.512052316654521 !

#311000000000
r3.534971611295603 !

#312000000000
r3.557965217243174 !

#313000000000
r3.581033132267931 !

#314000000000
r3.604175354140635 !

#315000000000
r3.627391880632114 !

#316000000000
r3.650682709513262 !

#317000000000
r3.674047838555040 !

#318000000000
r3.697487265528479 !

#319000000000
r3.721000988204672 !

#320000000000
r3.744589004354784 !

#321000000000
r3.768251311750043 !

#322000000000
r3.791987908161745 !

#323000000000
r3.815798791361253 !

#324000000000
r3.839683959119995 !

#325000000000
r3.863643409209470 !

#326000000000
r3.887677139401241 !

#327000000000
r3.911785147466938 !

#328000000000
r3.935967431178259 !

#329000000000
r3.960223988306967 !

#330000000000
r3.984554816624894 !

#331000000000
r4.008959913903936 !

#332000000000
r4.033439277916058 !

#333000000000
r4.057992906433292 !

#334000000000
r4.082620797227738 !

#335000000000
r4.107322948071558 !

#336000000000
r4.132099356736986 !

#337000000000
r4.156950020996319 !

#338000000000
r4.181874938621926 !

#339000000000
r4.206874107386238 !

#340000000000
r4.231947525061751 !

#341000000000
r4.257095189421035 !

#342000000000
r4.282317098236721 !

#343000000000
r4.307613249281508 !

#344000000000
r4.332983640328165 !

#345000000000
r4.358428269149524 !

#346000000000
r4.383947133518483 !

#347000000000
r4.409540231208013 !

#348000000000
r4.435207559991145 !

#349000000000
r4.460949117640981 !

#350000000000
r4.486764901930687 !

#351000000000
r4.512654910633499 !

#352000000000
r4.538619141522716 !

#353000000000
r4.564657592371708 !

#354000000000
r4.590770260953907 !

#355000000000
r4.616957145042817 !

#356000000000
r4.643218242412005 !

#357000000000
r4.669553550835108 !

#358000000000
r4.695963068085825 !

#359000000000
r4.722446791937923 !

#360000000000
r4.749004720165241 !

#361000000000
r4.775636850541680 !

#362000000000
r4.802343180841210 !

#363000000000
r4.829123708837866 !

#364000000000
r4.855978432305749 !

#365000000000
r4.882907349019030 !

#366000000000
r4.909910456751945 !

#367000000000
r4.936987753278793 !

#368000000000
r4.964139236373947 !

#369000000000
r4.991214906061812 !

#370000000000
r5.018214764616753 !

#371000000000
r5.045138814313069 !

#372000000000
r5.071987057424993 !

#373000000000
r5.098759496226688 !

#374000000000
r5.125456132992249 !

#375000000000
r5.152076969995704 !

#376000000000
r5.178622009511013 !

#377000000000
r5.205091253812064 !

#378000000000
r5.231484705172679 !

#379000000000
r5.257802365866613 !

#380000000000
r5.284044238167552 !

#381000000000
r5.310210324349114 !

#382000000000
r5.336300626684849 !

#383000000000
r5.362315147448238 !

#384000000000
r5.388253888912693 !

#385000000000
r5.414116853351560 !

#386000000000
r5.439904043038115 !

#387000000000
r5.465615460245566 !

#388000000000
r5.491251107247053 !

#389000000000
r5.516810986315649 !

#390000000000
r5.542295099724359 !

#391000000000
r5.567703449746118 !

#392000000000
r5.593036038653792 !

#393000000000
r5.618292868720182 !

#394000000000
r5.643473942218019 !

#395000000000
r5.668579261419965 !

#396000000000
r5.693608828598616 !

#397000000000
r5.718562646026497 !

#398000000000
r5.743440715976067 !

#399000000000
r5.768243040719717 !

#400000000000
r5.792969622529769 !

#401000000000
r5.817620463678476 !

#402000000000
r5.842195566438024 !

#403000000000
r5.866694933080531 !

#404000000000
r5.891118565878046 !

#405000000000
r5.915466467102550 !

#406000000000
r5.939738639025958 !

#407000000000
r5.963935083920115 !

#408000000000
r5.988055804056795 !

#409000000000
r6.012100801707710 !

#410000000000
r6.036070079144499 !

#411000000000
r6.059963638638734 !

#412000000000
r6.083781482461917 !

#413000000000
r6.107523612885485 !

#414000000000
r6.131190032180807 !

#415000000000
r6.154780742619185 !

#416000000000
r6.178295746471848 !

#417000000000
r6.201735046009961 !

#418000000000
r6.225098643504619 !

#419000000000
r6.248386541226848 !

#420000000000
r6.271598741447608 !

#421000000000
r6.294735246437789 !

#422000000000
r6.317796058468216 !

#423000000000
r6.340781179809642 !

#424000000000
r6.363690612732755 !

#425000000000
r6.386524359508173 !

#426000000000
r6.409282422406444 !

#427000000000
r6.431964803698052 !

#428000000000
r6.454571505653410 !

#429000000000
r6.477102530542866 !

#430000000000
r6.499557880636698 !

#431000000000
r6.521937558205116 !

#432000000000
r6.544241565518261 !

#433000000000
r6.566469904846206 !

#434000000000
r6.588622578458956 !

#435000000000
r6.610699588626449 !

#436000000000
r6.632700937618554 !

#437000000000
r6.654626627705074 !

#438000000000
r6.676476661155742 !

#439000000000
r6.698251040240222 !

#440000000000
r6.719949767228111 !

#441000000000
r6.741572844388938 !

#442000000000
r6.763120273992164 !

#443000000000
r6.784592058307180 !

#444000000000
r6.805988199603312 !

#445000000000
r6.827308700149816 !

#446000000000
r6.848553562215881 !

#447000000000
r6.869722788070626 !

#448000000000
r6.890816379983105 !

#449000000000
r6.911834340222302 !

#450000000000
r6.932776671057132 !

#451000000000
r6.953643374756445 !

#452000000000
r6.974434453589020 !

#453000000000
r6.995149909823570 !

#454000000000
r7.015789745728738 !

#455000000000
r7.036353963573100 !

#456000000000
r7.056842565625163 !

#457000000000
r7.077255554153368 !

#458000000000
r7.097592931426083 !

#459000000000
r7.117854699711616 !

#460000000000
r7.138040861278201 !

#461000000000
r7.158151418394006 !

#462000000000
r7.178186373327131 !

#463000000000
r7.198145728345607 !

#464000000000
r7.218029485717397 !

#465000000000
r7.237837647710395 !

#466000000000
r7.257570216592432 !

#467000000000
r7.277227194631265 !

#468000000000
r7.296808584094584 !

#469000000000
r7.316314387250014 !

#470000000000
r7.335744606365108 !

#471000000000
r7.355099243707357 !

#472000000000
r7.374378301544181 !

#473000000000
r7.393581782142927 !

#474000000000
r7.412709687770878 !

#475000000000
r7.431762020695252 !

#476000000000
r7.450738783183194 !

#477000000000
r7.469639977501783 !

#478000000000
r7.488465605918032 !

#479000000000
r7.507215670698883 !

#480000000000
r7.525890174111211 !

#481000000000
r7.544489118421825 !

#482000000000
r7.563012505897461 !

#483000000000
r7.581460338804791 !

#484000000000
r7.599832619410417 !

#485000000000
r7.618129349980877 !

#486000000000
r7.636350532782636 !

#487000000000
r7.654496170082093 !

#488000000000
r7.672566264145580 !

#489000000000
r7.690560817239358 !

#490000000000
r7.708479831629626 !

#491000000000
r7.726323309582510 !

#492000000000
r7.744091253364066 !

#493000000000
r7.761783665240286 !

#494000000000
r7.779400547477096 !

#495000000000
r7.796941902340350 !

#496000000000
r7.814407732095834 !

#497000000000
r7.831798039009267 !

#498000000000
r7.849112825346301 !

#499000000000
r7.866352093372520 !

#500000000000
r7.883515845353441 !

#501000000000
r7.900604083554509 !

#502000000000
r7.917616810241102 !

#503000000000
r7.934554027678533 !

#504000000000
r7.951415738132044 !

#505000000000
r7.968201943866815 !

#506000000000
r7.984912647147951 !

#507000000000
r8.001547850240492 !

#508000000000
r8.018107555409408 !

#509000000000
r8.034591764919604 !

#510000000000
r8.051000481035917 !

#511000000000
r8.067333706023112 !

#512000000000
r8.083591442145888 !

#513000000000
r8.099773691668883 !

#514000000000
r8.115880456856658 !

#515000000000
r8.131911739973708 !

#516000000000
r8.147867543284461 !

#517000000000
r8.163747869053278 !

#518000000000
r8.179552719544450 !

#519000000000
r8.195282097022201 !

#520000000000
r8.210936003750689 !

#521000000000
r8.226514441994004 !

#522000000000
r8.242017414016166 !

#523000000000
r8.257444922081126 !

#524000000000
r8.272796968452768 !

#525000000000
r8.288073555394911 !

#526000000000
r8.303274685171303 !

#527000000000
r8.318400360045626 !

#528000000000
r8.333450582281491 !

#529000000000
r8.348425354142444 !

#530000000000
r8.363324677891963 !

#531000000000
r8.378148555793459 !

#532000000000
r8.392896990110271 !

#533000000000
r8.407569983105676 !

#534000000000
r8.422167537042874 !

#535000000000
r8.436689654185004 !

#536000000000
r8.451136336795138 !

#537000000000
r8.465507587136278 !

#538000000000
r8.479803407471362 !

#539000000000
r8.494023800063250 !

#540000000000
r8.508168767174739 !

#541000000000
r8.522238311068564 !

#542000000000
r8.536232434007388 !

#543000000000
r8.550151138253806 !

#544000000000
r8.563994426070343 !

#545000000000
r8.577762299719456 !

#546000000000
r8.591454761463540 !

#547000000000
r8.605071813564916 !

#548000000000
r8.618613458285839 !

#549000000000
r8.632079697888500 !

#550000000000
r8.645470534635015 !

#551000000000
r8.658785970787434 !

#552000000000
r8.672026008607743 !

#553000000000
r8.685190650357857 !

#554000000000
r8.698279898299626 !

#555000000000
r8.711293754694832 !

#556000000000
r8.724232221805185 !

#557000000000
r8.737095301892326 !

#558000000000
r8.749882997217838 !

#559000000000
r8.762595310043231 !

#560000000000
r8.775232242629944 !

#561000000000
r8.787793797239345 !

#562000000000
r8.800279976132742 !

#563000000000
r8.812690781571376 !

#564000000000
r8.825026215816417 !

#565000000000
r8.837286281128964 !

#566000000000
r8.849470979770054 !

#567000000000
r8.861580314000649 !

#568000000000
r8.873614286081651 !

#569000000000
r8.885572898273885 !

#570000000000
r8.897456152838117 !

#571000000000
r8.909264052035043 !

#572000000000
r8.920996598125289 !

#573000000000
r8.932653793369415 !

#574000000000
r8.944235640027912 !

#575000000000
r8.955742140361206 !

#576000000000
r8.967173296629653 !

#577000000000
r8.978529111093540 !

#578000000000
r8.989809586013083 !

#579000000000
r9.001014723648437 !

#580000000000
r9.012144526259689 !

#581000000000
r9.023198996106855 !

#582000000000
r9.034178135449883 !

#583000000000
r9.045081946548656 !

#584000000000
r9.055910431662985 !

#585000000000
r9.066663593052617 !

#586000000000
r9.077341432977228 !

#587000000000
r9.087943953696428 !

#588000000000
r9.098471157469762 !

#589000000000
r9.108923046556702 !

#590000000000
r9.119299623216655 !

#591000000000
r9.129600889708962 !

#592000000000
r9.139826848292895 !

#593000000000
r9.149977501227653 !

#594000000000
r9.160052850772374 !

#595000000000
r9.170052899186125 !

#596000000000
r9.179977648727906 !

#597000000000
r9.189827101656652 !

#598000000000
r9.199601260231226 !

#599000000000
r9.209300126710424 !

#600000000000
r9.218923703352976 !

#601000000000
r9.228471992417541 !

#602000000000
r9.237944996162712 !

#603000000000
r9.247342716847017 !

#604000000000
r9.256665156728912 !

#605000000000
r9.265912318066789 !

#606000000000
r9.275084203118970 !

#607000000000
r9.284180814143710 !

#608000000000
r9.293202153399196 !

#609000000000
r9.302148223143547 !

#610000000000
r9.311019025634815 !

#611000000000
r9.319814563130986 !

#612000000000
r9.328534837889974 !

#613000000000
r9.337179852169625 !

#614000000000
r9.345749608227718 !

#615000000000
r9.354244108321971 !

#616000000000
r9.362663354710028 !

#617000000000
r9.371007349649464 !

#618000000000
r9.379276095397790 !

#619000000000
r9.387469594212446 !

#620000000000
r9.395587848350806 !

#621000000000
r9.403630860070180 !

#622000000000
r9.411598631627804 !

#623000000000
r9.419491165280848 !

#624000000000
r9.427308463286419 !

#625000000000
r9.435050527901554 !

#626000000000
r9.442717361383217 !

#627000000000
r9.450308965988306 !

#628000000000
r9.457825343973656 !

#629000000000
r9.465266497596033 !

#630000000000
r9.472632429112133 !

#631000000000
r9.479923140778585 !

#632000000000
r9.487138634851950 !

#633000000000
r9.494278913588724 !

#634000000000
r9.501343979245332 !

#635000000000
r9.508333834078135 !

#636000000000
r9.515248480343422 !

#637000000000
r9.522087920297414 !

#638000000000
r9.528852156196269 !

#639000000000
r9.535541190296074 !

#640000000000
r9.542155024852850 !

#641000000000
r9.548693662122545 !

#642000000000
r9.555157104361047 !

#643000000000
r9.561545353824176 !

#644000000000
r9.567858412767679 !

#645000000000
r9.574096283447235 !

#646000000000
r9.580258968118461 !

#647000000000
r9.586346469036904 !

#648000000000
r9.592358788458043 !

#649000000000
r9.598295928637286 !

#650000000000
r9.604157891829978 !

#651000000000
r9.609944680291397 !

#652000000000
r9.615656296276750 !

#653000000000
r9.621292742041176 !

#654000000000
r9.626854019839747 !

#655000000000
r9.632340131927473 !

#656000000000
r9.637751080559287 !

#657000000000
r9.643086867990061 !

#658000000000
r9.648347496474598 !

#659000000000
r9.653532968267628 !

#660000000000
r9.658643285623818 !

#661000000000
r9.663678450797772 !

#662000000000
r9.668638466044021 !

#663000000000
r9.673523333617025 !

#664000000000
r9.678333055771184 !

#665000000000
r9.683067634760825 !

#666000000000
r9.687727072840211 !

#667000000000
r9.692311372263537 !

#668000000000
r9.696820535284925 !

#669000000000
r9.701254564158432 !

#670000000000
r9.705613461138054 !

#671000000000
r9.709897228477708 !

#672000000000
r9.714105868431254 !

#673000000000
r9.718239383252481 !

#674000000000
r9.722297775195106 !

#675000000000
r9.726281046512781 !

#676000000000
r9.730189199459094 !

#677000000000
r9.734022236287558 !

#678000000000
r9.737780159251624 !

#679000000000
r9.741462970604678 !

#680000000000
r9.745070672600031 !

#681000000000
r9.748603267490932 !

#682000000000
r9.752060757530558 !

#683000000000
r9.755443144972020 !

#684000000000
r9.758750432068366 !

#685000000000
r9.761982621072571 !

#686000000000
r9.765139714237543 !

#687000000000
r9.768221713816123 !

#688000000000
r9.771228622061084 !

#689000000000
r9.774160441225135 !

#690000000000
r9.777017173560914 !

#691000000000
r9.779798821320993 !

#692000000000
r9.782505386757874 !

#693000000000
r9.785136872123992 !

#694000000000
r9.787693279671716 !

#695000000000
r9.790174611653347 !

#696000000000
r9.792580870321117 !

#697000000000
r9.794912057927194 !

#698000000000
r9.797168176723675 !

#699000000000
r9.799349228962592 !

#700000000000
r9.801455216895906 !

#701000000000
r9.803486142775512 !

#702000000000
r9.805442008853239 !

#703000000000
r9.807322817380847 !

#704000000000
r9.809128570610026 !

#705000000000
r9.810859270792404 !

#706000000000
r9.812514920179538 !

#707000000000
r9.814095521022919 !

#708000000000
r9.815601075573969 !

#709000000000
r9.817031586084044 !

#710000000000
r9.818387054804431 !

#711000000000
r9.819667483986349 !

#712000000000
r9.820872875880948 !

#713000000000
r9.822003232739316 !

#714000000000
r9.823058556812473 !

#715000000000
r9.824038850351368 !

#716000000000
r9.824944115606879 !

#717000000000
r9.825774354829820 !

#718000000000
r9.826529570270944 !

#719000000000
r9.827209764180930 !

#720000000000
r9.827814938810386 !

#721000000000
r9.828345096409860 !

#722000000000
r9.828800239229828 !

#723000000000
r9.829180369520698 !

#724000000000
r9.829485489532813 !

#725000000000
r9.829715601516448 !

#726000000000
r9.829870707721810 !

#727000000000
r9.829950810399037 !

#728000000000
r9.829955911798203 !

#729000000000
r9.829886014169313 !

#730000000000
r9.829741119762303 !

#731000000000
r9.829521230827046 !

#732000000000
r9.829226349613341 !

#733000000000
r9.828931477245941 !

#734000000000
r9.828636613724580 !

#735000000000
r9.828341759048991 !

#736000000000
r9.828046913218909 !

#737000000000
r9.827752076234068 !

#738000000000
r9.827457248094202 !

#739000000000
r9.827162428799049 !

#740000000000
r9.826867618348345 !

#741000000000
r9.826572816741821 !

#742000000000
r9.826278023979212 !

#743000000000
r9.825983240060252 !

#744000000000
r9.825688464984676 !

#745000000000
r9.825393698752221 !

#746000000000
r9.825098941362620 !

#747000000000
r9.824804192815609 !

#748000000000
r9.824509453110922 !

#749000000000
r9.824214722248295 !

#750000000000
r9.823920000227458 !

#751000000000
r9.823625287048147 !

#752000000000
r9.823330582710099 !

#753000000000
r9.823035887213051 !

#754000000000
r9.822741200556734 !

#755000000000
r9.822446522740885 !

#756000000000
r9.822151853765236 !

#757000000000
r9.821857193629526 !

#758000000000
r9.821562542333488 !

#759000000000
r9.821267899876855 !

#760000000000
r9.820973266259362 !

#761000000000
r9.820678641480747 !

#762000000000
r9.820384025540742 !

#763000000000
r9.820089418439080 !

#764000000000
r9.819794820175501 !

#765000000000
r9.819500230749737 !

#766000000000
r9.819205650161523 !

#767000000000
r9.818911078410594 !

#768000000000
r9.818616515496684 !

#769000000000
r9.818321961419530 !

#770000000000
r9.818027416178866 !

#771000000000
r9.817732879774427 !

#772000000000
r9.817438352205945 !

#773000000000
r9.817143833473160 !

#774000000000
r9.816849323575806 !

#775000000000
r9.816554822513616 !

#776000000000
r9.816260330286328 !

#777000000000
r9.815965846893674 !

#778000000000
r9.815671372335387 !

#779000000000
r9.815376906611204 !

#780000000000
r9.815082449720860 !

#781000000000
r9.814788001664088 !

#782000000000
r9.814493562440626 !

#783000000000
r9.814199132050209 !

#784000000000
r9.813904710492571 !

#785000000000
r9.813610297767447 !

#786000000000
r9.813315893874572 !

#787000000000
r9.813021498813683 !

#788000000000
r9.812727112584515 !

#789000000000
r9.812432735186800 !

#790000000000
r9.812138366620273 !

#791000000000
r9.811844006884670 !

#792000000000
r9.811549655979727 !

#793000000000
r9.811255313905178 !

#794000000000
r9.810960980660759 !

#795000000000
r9.810666656246207 !

#796000000000
r9.810372340661253 !

#797000000000
r9.810078033905633 !

#798000000000
r9.809783735979083 !

#799000000000
r9.809489446881340 !

#800000000000
r9.809195166612136 !

#801000000000
r9.808900895171210 !

#802000000000
r9.808606632558295 !

#803000000000
r9.808312378773124 !

#804000000000
r9.808018133815432 !

#805000000000
r9.807723897684957 !

#806000000000
r9.807429670381435 !

#807000000000
r9.807135451904600 !

#808000000000
r9.806841242254187 !

#809000000000
r9.806547041429932 !

#810000000000
r9.806252849431571 !

#811000000000
r9.805958666258839 !

#812000000000
r9.805664491911466 !

#813000000000
r9.805370326389191 !

#814000000000
r9.805076169691750 !

#815000000000
r9.804782021818880 !

#816000000000
r9.804487882770314 !

#817000000000
r9.804193752545785 !

#818000000000
r9.803899631145029 !

#819000000000
r9.803605518567780 !

#820000000000
r9.803311414813779 !

#821000000000
r9.803017319882761 !

#822000000000
r9.802723233774458 !

#823000000000
r9.802429156488603 !

#824000000000
r9.802135088024936 !

#825000000000
r9.801841028383192 !

#826000000000
r9.801546977563104 !

#827000000000
r9.801252935564408 !

#828000000000
r9.800958902386837 !

#829000000000
r9.800664878030130 !

#830000000000
r9.800370862494022 !

#831000000000
r9.800076855778249 !

#832000000000
r9.799782857882546 !

#833000000000
r9.799488868806646 !

#834000000000
r9.799194888550286 !

#835000000000
r9.798900917113201 !

#836000000000
r9.798606954495130 !

#837000000000
r9.798313000695803 !

#838000000000
r9.798019055714956 !

#839000000000
r9.797725119552329 !

#840000000000
r9.797431192207656 !

#841000000000
r9.797137273680670 !

#842000000000
r9.796843363971108 !

#843000000000
r9.796549463078703 !

#844000000000
r9.796255571003192 !

#845000000000
r9.795961687744313 !

#846000000000
r9.795667813301801 !

#847000000000
r9.795373947675388 !

#848000000000
r9.795080090864811 !

#849000000000
r9.794786242869804 !

#850000000000
r9.794492403690104 !

#851000000000
r9.794198573325446 !

#852000000000
r9.793904751775568 !

#853000000000
r9.793610939040207 !

#854000000000
r9.793317135119096 !

#855000000000
r9.793023340011969 !

#856000000000
r9.792729553718562 !

#857000000000
r9.792435776238614 !

#858000000000
r9.792142007571858 !

#859000000000
r9.791848247718029 !

#860000000000
r9.791554496676865 !

#861000000000
r9.791260754448100 !

#862000000000
r9.790967021031468 !

#863000000000
r9.790673296426707 !

#864000000000
r9.790379580633553 !

#865000000000
r9.790085873651741 !

#866000000000
r9.789792175481002 !

#867000000000
r9.789498486121078 !

